Verilog_Folder/MultiCycleCPU/test.vcd
$date
	Sat Jul  3 23:02:24 2021
$end
$version
	Icarus Verilog
$end
$timescale
	1ps
$end
$scope module CPU_sim_1 $end
$var wire 5 ! rt [4:0] $end
$var wire 5 " rs [4:0] $end
$var wire 32 # nextIAddr [31:0] $end
$var wire 32 $ currentIAddr [31:0] $end
$var wire 32 % ReadData2 [31:0] $end
$var wire 32 & ReadData1 [31:0] $end
$var wire 32 ' DataBus [31:0] $end
$var wire 32 ( ALU_result [31:0] $end
$var reg 1 ) Reset $end
$var reg 1 * clk $end
$scope module uut $end
$var wire 1 + InsMemRW $end
$var wire 1 ) Reset $end
$var wire 1 * clk $end
$var wire 5 , rt [4:0] $end
$var wire 5 - rs [4:0] $end
$var wire 5 . rd [4:0] $end
$var wire 6 / opcode [5:0] $end
$var wire 32 0 nextIAddr [31:0] $end
$var wire 1 1 mWR $end
$var wire 1 2 mRD $end
$var wire 16 3 immediate [15:0] $end
$var wire 32 4 extended [31:0] $end
$var wire 32 5 currentIAddr [31:0] $end
$var wire 32 6 bincode [31:0] $end
$var wire 6 7 WriteReg [5:0] $end
$var wire 32 8 WriteData [31:0] $end
$var wire 1 9 WrRegDSrc $end
$var wire 1 : RegWre $end
$var wire 2 ; RegDst [1:0] $end
$var wire 32 < ReadData2 [31:0] $end
$var wire 32 = ReadData1 [31:0] $end
$var wire 1 > PCWre $end
$var wire 2 ? PCSrc [1:0] $end
$var wire 1 @ IRWre $end
$var wire 32 A IDataOut [31:0] $end
$var wire 1 B ExtSel $end
$var wire 32 C DataOut [31:0] $end
$var wire 32 D DataBus_before [31:0] $end
$var wire 32 E DataBus [31:0] $end
$var wire 1 F DBDataSrc $end
$var wire 32 G BDR_out [31:0] $end
$var wire 32 H ALUoutDR_out [31:0] $end
$var wire 1 I ALU_zero $end
$var wire 1 J ALU_sign $end
$var wire 32 K ALU_result [31:0] $end
$var wire 32 L ALU_inB [31:0] $end
$var wire 32 M ALU_inA [31:0] $end
$var wire 1 N ALUSrcB $end
$var wire 1 O ALUSrcA $end
$var wire 3 P ALUOp [2:0] $end
$var wire 32 Q ADR_out [31:0] $end
$scope module ADR $end
$var wire 1 ) Reset $end
$var wire 1 * clk $end
$var wire 32 R in [31:0] $end
$var reg 32 S out [31:0] $end
$upscope $end
$scope module ALU $end
$var wire 1 I zero $end
$var wire 1 J sign $end
$var wire 32 T B [31:0] $end
$var wire 3 U ALUOp [2:0] $end
$var wire 32 V A [31:0] $end
$var reg 32 W result [31:0] $end
$upscope $end
$scope module ALUoutDR $end
$var wire 1 ) Reset $end
$var wire 1 * clk $end
$var wire 32 X in [31:0] $end
$var reg 32 Y out [31:0] $end
$upscope $end
$scope module BDR $end
$var wire 1 ) Reset $end
$var wire 1 * clk $end
$var wire 32 Z in [31:0] $end
$var reg 32 [ out [31:0] $end
$upscope $end
$scope module ControlUnit $end
$var wire 1 + InsMemRW $end
$var wire 1 * clk $end
$var wire 6 \ opcode [5:0] $end
$var wire 1 ) rst $end
$var wire 1 J sign $end
$var wire 1 I zero $end
$var reg 3 ] ALUOp [2:0] $end
$var reg 1 O ALUSrcA $end
$var reg 1 N ALUSrcB $end
$var reg 1 F DBDataSrc $end
$var reg 1 B ExtSel $end
$var reg 1 @ IRWre $end
$var reg 2 ^ PCSrc [1:0] $end
$var reg 1 > PCWre $end
$var reg 2 _ RegDst [1:0] $end
$var reg 1 : RegWre $end
$var reg 1 9 WrRegDSrc $end
$var reg 1 2 mRD $end
$var reg 1 1 mWR $end
$var reg 3 ` state [2:0] $end
$upscope $end
$scope module DBDR $end
$var wire 1 ) Reset $end
$var wire 1 * clk $end
$var wire 32 a in [31:0] $end
$var reg 32 b out [31:0] $end
$upscope $end
$scope module DataMemory $end
$var wire 32 c DAddr [31:0] $end
$var wire 1 2 RD $end
$var wire 1 1 WR $end
$var wire 1 * clk $end
$var wire 32 d DataOut [31:0] $end
$var wire 32 e DataIn [31:0] $end
$upscope $end
$scope module IR $end
$var wire 1 @ IRWre $end
$var wire 1 * clk $end
$var wire 32 f insIn [31:0] $end
$var reg 32 g insOut [31:0] $end
$upscope $end
$scope module ImmediateExtend $end
$var wire 1 B ExtSel $end
$var wire 16 h original [15:0] $end
$var reg 32 i extended [31:0] $end
$upscope $end
$scope module InstructionMemory $end
$var wire 32 j IDataOut [31:0] $end
$var wire 32 k IAddr [31:0] $end
$upscope $end
$scope module Mux_ALU_inA $end
$var wire 1 O choice $end
$var wire 32 l in0 [31:0] $end
$var wire 32 m in1 [31:0] $end
$var wire 32 n out [31:0] $end
$upscope $end
$scope module Mux_ALU_inB $end
$var wire 1 N choice $end
$var wire 32 o in0 [31:0] $end
$var wire 32 p in1 [31:0] $end
$var wire 32 q out [31:0] $end
$upscope $end
$scope module Mux_DBDR $end
$var wire 1 F choice $end
$var wire 32 r in0 [31:0] $end
$var wire 32 s in1 [31:0] $end
$var wire 32 t out [31:0] $end
$upscope $end
$scope module Mux_WriteData $end
$var wire 1 9 choice $end
$var wire 32 u in0 [31:0] $end
$var wire 32 v in1 [31:0] $end
$var wire 32 w out [31:0] $end
$upscope $end
$scope module Mux_WriteReg $end
$var wire 2 x choice [1:0] $end
$var wire 5 y in0 [4:0] $end
$var wire 5 z in1 [4:0] $end
$var wire 5 { in2 [4:0] $end
$var wire 5 | in3 [4:0] $end
$var reg 5 } out [4:0] $end
$upscope $end
$scope module Mux_nextIAddr $end
$var wire 2 ~ choice [1:0] $end
$var wire 32 !" in0 [31:0] $end
$var wire 32 "" in1 [31:0] $end
$var wire 32 #" in3 [31:0] $end
$var wire 32 $" in2 [31:0] $end
$var reg 32 %" out [31:0] $end
$upscope $end
$scope module PC $end
$var wire 1 > PCWre $end
$var wire 1 ) Reset $end
$var wire 1 * clk $end
$var wire 32 &" nextIAddr [31:0] $end
$var reg 32 '" currentIAddr [31:0] $end
$upscope $end
$scope module RegisterFile $end
$var wire 5 (" ReadReg1 [4:0] $end
$var wire 5 )" ReadReg2 [4:0] $end
$var wire 1 ) Reset $end
$var wire 1 : WE $end
$var wire 32 *" WriteData [31:0] $end
$var wire 5 +" WriteReg [4:0] $end
$var wire 1 * clk $end
$var wire 32 ," ReadData2 [31:0] $end
$var wire 32 -" ReadData1 [31:0] $end
$var integer 32 ." i [31:0] $end
$upscope $end
$upscope $end
$upscope $end
$enddefinitions $end
#0
$dumpvars
b100000 ."
bx -"
bx ,"
bx +"
bx *"
bx )"
bx ("
b0 '"
b0 &"
b0 %"
bx $"
b0xxxxxxxxxxxxxxxxxxxxxxxxxx00 #"
bx ""
b100 !"
bx ~
bx }
bz |
bx {
bx z
b11111 y
bx x
bx w
bx v
b100 u
bx t
bx s
bx r
bx q
bx p
bx o
bx n
b0xxxxx m
bx l
b0 k
b1000000000010000000000001000 j
bx i
bx h
bx g
b1000000000010000000000001000 f
bx e
bx d
bx c
bx b
bx a
b0 `
bx _
bx ^
bx ]
bx \
bx [
bx Z
bx Y
bx X
bx W
bx V
bx U
bx T
bx S
bx R
bx Q
bx P
xO
xN
bx M
bx L
bx K
xJ
xI
bx H
bx G
xF
bx E
bx D
bx C
xB
b1000000000010000000000001000 A
1@
bx ?
1>
bx =
bx <
bx ;
x:
x9
bx 8
b0xxxxx 7
bx 6
b0 5
bx 4
bx 3
x2
x1
b0 0
bx /
bx .
bx -
bx ,
1+
1*
0)
bx (
bx '
bx &
bx %
b0 $
b0 #
bx "
bx !
$end
#25000
1)
#50000
b1 +"
b1 7
b1 }
b100100 ""
b1000 L
b1000 T
b1000 q
bz C
bz d
bz s
b100 #
b100 0
b100 %"
b100 &"
b1000 4
b1000 i
b1000 p
0O
1N
0F
19
02
1B
b0 ?
b0 ^
b0 ~
b1 ;
b1 _
b1 x
b0 P
b0 U
b0 ]
b0 m
b0 %
b0 <
b0 Z
b0 e
b0 ,"
b0 &
b0 =
b0 R
b0 $"
b0 -"
01
0:
b1000000000000100000 #"
b1000 3
b1000 h
b0 .
b0 {
b1 !
b1 ,
b1 z
b1 )"
b0 "
b0 -
b0 ("
b10 /
b10 \
0>
b1000000000010000000000001000 6
b1000000000010000000000001000 g
0*
#100000
0I
0J
b1000 D
b1000 a
b1000 t
b1000 (
b1000 K
b1000 W
b1000 X
b1000 c
b1000 r
b0 M
b0 V
b0 n
b0 G
b0 [
b0 o
b0 Q
b0 S
b0 l
b1 `
1*
#150000
0*
#200000
b1000 8
b1000 w
b1000 *"
b1000 H
b1000 Y
b1000 '
b1000 E
b1000 b
b1000 v
b110 `
1*
#250000
0*
#300000
1:
b111 `
1*
#350000
b1000 %
b1000 <
b1000 Z
b1000 e
b1000 ,"
1>
0*
#400000
0:
b1000 #
b1000 0
b1000 %"
b1000 &"
b1000 G
b1000 [
b1000 o
b0 `
b1001000000000100000000000000010 A
b1001000000000100000000000000010 f
b1001000000000100000000000000010 j
b1000 u
b101000 ""
b1000 !"
b100 $
b100 5
b100 k
b100 '"
1*
#450000
b10 D
b10 a
b10 t
b10 (
b10 K
b10 W
b10 X
b10 c
b10 r
b10 L
b10 T
b10 q
b10000 ""
b10 +"
b10 4
b10 i
b10 p
b10 7
b10 }
0B
b11 P
b11 U
b11 ]
b0 %
b0 <
b0 Z
b0 e
b0 ,"
b10000000000000001000 #"
b10 3
b10 h
b10 !
b10 ,
b10 z
b10 )"
b10010 /
b10010 \
0>
b1001000000000100000000000000010 6
b1001000000000100000000000000010 g
0*
#500000
b10 8
b10 w
b10 *"
b10 '
b10 E
b10 b
b10 v
b10 H
b10 Y
b0 G
b0 [
b0 o
b1 `
1*
#550000
0*
#600000
b110 `
1*
#650000
0*
#700000
1:
b111 `
1*
#750000
b10 %
b10 <
b10 Z
b10 e
b10 ,"
1>
0*
#800000
0:
b1100 #
b1100 0
b1100 %"
b1100 &"
b10 G
b10 [
b10 o
b0 `
b1001100010000110000000000001000 A
b1001100010000110000000000001000 f
b1001100010000110000000000001000 j
b1100 u
b10100 ""
b1100 !"
b1000 $
b1000 5
b1000 k
b1000 '"
1*
#850000
b1000 D
b1000 a
b1000 t
b1000 (
b1000 K
b1000 W
b1000 X
b1000 c
b1000 r
b1000 L
b1000 T
b1000 q
b101100 ""
b11 +"
b1000 4
b1000 i
b1000 p
b11 7
b11 }
b111 P
b111 U
b111 ]
b0 %
b0 <
b0 Z
b0 e
b0 ,"
b10 &
b10 =
b10 R
b10 $"
b10 -"
b1000011000000000000100000 #"
b1000 3
b1000 h
b11 !
b11 ,
b11 z
b11 )"
b10 "
b10 -
b10 ("
b10011 /
b10011 \
0>
b1001100010000110000000000001000 6
b1001100010000110000000000001000 g
0*
#900000
b1010 D
b1010 a
b1010 t
b1010 (
b1010 K
b1010 W
b1010 X
b1010 c
b1010 r
b1000 8
b1000 w
b1000 *"
b10 M
b10 V
b10 n
b1000 '
b1000 E
b1000 b
b1000 v
b1000 H
b1000 Y
b0 G
b0 [
b0 o
b10 Q
b10 S
b10 l
b1 `
1*
#950000
0*
#1000000
b1010 8
b1010 w
b1010 *"
b1010 H
b1010 Y
b1010 '
b1010 E
b1010 b
b1010 v
b110 `
1*
#1050000
0*
#1100000
1:
b111 `
1*
#1150000
b1010 %
b1010 <
b1010 Z
b1010 e
b1010 ,"
1>
0*
#1200000
0:
b10000 #
b10000 0
b10000 %"
b10000 &"
b1010 G
b1010 [
b1010 o
b0 `
b100011000010010000000000000 A
b100011000010010000000000000 f
b100011000010010000000000000 j
b10000 u
b110000 ""
b10000 !"
b1100 $
b1100 5
b1100 k
b1100 '"
1*
#1250000
1J
b11111111111111111111111111111000 D
b11111111111111111111111111111000 a
b11111111111111111111111111111000 t
b1000000000010000 ""
b100 +"
b1010 L
b1010 T
b1010 q
b11111111111111111111111111111000 (
b11111111111111111111111111111000 K
b11111111111111111111111111111000 W
b11111111111111111111111111111000 X
b11111111111111111111111111111000 c
b11111111111111111111111111111000 r
b10000000000000 4
b10000000000000 i
b10000000000000 p
b100 7
b100 }
0N
b10 ;
b10 _
b10 x
b1 P
b1 U
b1 ]
b1000 %
b1000 <
b1000 Z
b1000 e
b1000 ,"
b1010 &
b1010 =
b1010 R
b1010 $"
b1010 -"
b1100001001000000000000000 #"
b10000000000000 3
b10000000000000 h
b100 .
b100 {
b1 !
b1 ,
b1 z
b1 )"
b11 "
b11 -
b11 ("
b1 /
b1 \
0>
b100011000010010000000000000 6
b100011000010010000000000000 g
0*
#1300000
0J
b10 D
b10 a
b10 t
b10 (
b10 K
b10 W
b10 X
b10 c
b10 r
b11111111111111111111111111111000 8
b11111111111111111111111111111000 w
b11111111111111111111111111111000 *"
b1000 L
b1000 T
b1000 q
b1010 M
b1010 V
b1010 n
b11111111111111111111111111111000 '
b11111111111111111111111111111000 E
b11111111111111111111111111111000 b
b11111111111111111111111111111000 v
b11111111111111111111111111111000 H
b11111111111111111111111111111000 Y
b1000 G
b1000 [
b1000 o
b1010 Q
b1010 S
b1010 l
b1 `
1*
#1350000
0*
#1400000
b10 8
b10 w
b10 *"
b10 H
b10 Y
b10 '
b10 E
b10 b
b10 v
b110 `
1*
#1450000
0*
#1500000
1:
b111 `
1*
#1550000
1>
0*
#1600000
0:
b10100 #
b10100 0
b10100 %"
b10100 &"
b0 `
b1000000100000100010100000000000 A
b1000000100000100010100000000000 f
b1000000100000100010100000000000 j
b10100 u
b1000000000010100 ""
b10100 !"
b10000 $
b10000 5
b10000 k
b10000 '"
1*
#1650000
b1000 D
b1000 a
b1000 t
b1010000000010100 ""
b101 +"
b1000 (
b1000 K
b1000 W
b1000 X
b1000 c
b1000 r
b10100000000000 4
b10100000000000 i
b10100000000000 p
b101 7
b101 }
b100 P
b100 U
b100 ]
b10 %
b10 <
b10 Z
b10 e
b10 ,"
b10 &
b10 =
b10 R
b10 $"
b10 -"
b10000010001010000000000000 #"
b10100000000000 3
b10100000000000 h
b101 .
b101 {
b10 !
b10 ,
b10 z
b10 )"
b100 "
b100 -
b100 ("
b10000 /
b10000 \
0>
b1000000100000100010100000000000 6
b1000000100000100010100000000000 g
0*
#1700000
b10 D
b10 a
b10 t
b10 (
b10 K
b10 W
b10 X
b10 c
b10 r
b1000 8
b1000 w
b1000 *"
b10 L
b10 T
b10 q
b10 M
b10 V
b10 n
b1000 '
b1000 E
b1000 b
b1000 v
b1000 H
b1000 Y
b10 G
b10 [
b10 o
b10 Q
b10 S
b10 l
b1 `
1*
#1750000
0*
#1800000
b10 8
b10 w
b10 *"
b10 H
b10 Y
b10 '
b10 E
b10 b
b10 v
b110 `
1*
#1850000
0*
#1900000
1:
b111 `
1*
#1950000
1>
0*
#2000000
0:
b11000 #
b11000 0
b11000 %"
b11000 &"
b0 `
b1100000000001010010100010000000 A
b1100000000001010010100010000000 f
b1100000000001010010100010000000 j
b11000 u
b1010000000011000 ""
b11000 !"
b10100 $
b10100 5
b10100 k
b10100 '"
1*
#2050000
b1000 D
b1000 a
b1000 t
b1010001000011000 ""
b1000 (
b1000 K
b1000 W
b1000 X
b1000 c
b1000 r
b10100010000000 4
b10100010000000 i
b10100010000000 p
1O
b10 P
b10 U
b10 ]
b10 m
b0 &
b0 =
b0 R
b0 $"
b0 -"
b101001010001000000000 #"
b10100010000000 3
b10100010000000 h
b101 !
b101 ,
b101 z
b101 )"
b0 "
b0 -
b0 ("
b11000 /
b11000 \
0>
b1100000000001010010100010000000 6
b1100000000001010010100010000000 g
0*
#2100000
b1000 8
b1000 w
b1000 *"
b1000 '
b1000 E
b1000 b
b1000 v
b1000 H
b1000 Y
b0 Q
b0 S
b0 l
b1 `
1*
#2150000
0*
#2200000
b110 `
1*
#2250000
0*
#2300000
1:
b111 `
1*
#2350000
b1000 %
b1000 <
b1000 Z
b1000 e
b1000 ,"
1>
0*
#2400000
b100000 D
b100000 a
b100000 t
b100000 (
b100000 K
b100000 W
b100000 X
b100000 c
b100000 r
b1000 L
b1000 T
b1000 q
0:
b11100 #
b11100 0
b11100 %"
b11100 &"
b1000 G
b1000 [
b1000 o
b0 `
b11010000101000011111111111111110 A
b11010000101000011111111111111110 f
b11010000101000011111111111111110 j
b11100 u
b1010001000011100 ""
b11100 !"
b11000 $
b11000 5
b11000 k
b11000 '"
1*
#2450000
1J
b11100 #
b11100 0
b11100 %"
b11100 &"
b10100 ""
b11111 +"
b0 ?
b0 ^
b0 ~
b11111111111111111111111111111110 4
b11111111111111111111111111111110 i
b11111111111111111111111111111110 p
b11111 7
b11111 }
0O
1B
b0 ;
b0 _
b0 x
b1 P
b1 U
b1 ]
0I
b11111111111111111111111111111000 D
b11111111111111111111111111111000 a
b11111111111111111111111111111000 t
b11111111111111111111111111111000 (
b11111111111111111111111111111000 K
b11111111111111111111111111111000 W
b11111111111111111111111111111000 X
b11111111111111111111111111111000 c
b11111111111111111111111111111000 r
b0 M
b0 V
b0 n
b11111 m
b1000 &
b1000 =
b1000 R
b1000 $"
b1000 -"
b10100001111111111111111000 #"
b1111111111111110 3
b1111111111111110 h
b11111 .
b11111 {
b1 !
b1 ,
b1 z
b1 )"
b101 "
b101 -
b101 ("
b110100 /
b110100 \
0>
b11010000101000011111111111111110 6
b11010000101000011111111111111110 g
0*
#2500000
b10100 #
b10100 0
b10100 %"
b10100 &"
b1 ?
b1 ^
b1 ~
1I
0J
b0 D
b0 a
b0 t
b0 (
b0 K
b0 W
b0 X
b0 c
b0 r
b11111111111111111111111111111000 8
b11111111111111111111111111111000 w
b11111111111111111111111111111000 *"
b1000 M
b1000 V
b1000 n
b11111111111111111111111111111000 '
b11111111111111111111111111111000 E
b11111111111111111111111111111000 b
b11111111111111111111111111111000 v
b11111111111111111111111111111000 H
b11111111111111111111111111111000 Y
b1000 Q
b1000 S
b1000 l
b1 `
1*
#2550000
0*
#2600000
b0 8
b0 w
b0 *"
b0 H
b0 Y
b0 '
b0 E
b0 b
b0 v
b101 `
1*
#2650000
1>
0*
#2700000
b10000 #
b10000 0
b10000 %"
b10000 &"
b1100000000001010010100010000000 A
b1100000000001010010100010000000 f
b1100000000001010010100010000000 j
b11000 u
b10000 ""
b11000 !"
b10100 $
b10100 5
b10100 k
b10100 '"
b0 `
1*
#2750000
b101 +"
b101 7
b101 }
0I
b100000 D
b100000 a
b100000 t
b1010001000011000 ""
b10 M
b10 V
b10 n
b11000 #
b11000 0
b11000 %"
b11000 &"
b100000 (
b100000 K
b100000 W
b100000 X
b100000 c
b100000 r
b10100010000000 4
b10100010000000 i
b10100010000000 p
1O
0B
b0 ?
b0 ^
b0 ~
b10 ;
b10 _
b10 x
b10 P
b10 U
b10 ]
b10 m
b0 &
b0 =
b0 R
b0 $"
b0 -"
b101001010001000000000 #"
b10100010000000 3
b10100010000000 h
b101 .
b101 {
b101 !
b101 ,
b101 z
b101 )"
b0 "
b0 -
b0 ("
b11000 /
b11000 \
b1100000000001010010100010000000 6
b1100000000001010010100010000000 g
0>
0*
#2800000
b100000 8
b100000 w
b100000 *"
b0 Q
b0 S
b0 l
b100000 H
b100000 Y
b100000 '
b100000 E
b100000 b
b100000 v
b1 `
1*
#2850000
0*
#2900000
b110 `
1*
#2950000
0*
#3000000
1:
b111 `
1*
#3050000
b100000 %
b100000 <
b100000 Z
b100000 e
b100000 ,"
1>
0*
#3100000
b10000000 D
b10000000 a
b10000000 t
b10000000 (
b10000000 K
b10000000 W
b10000000 X
b10000000 c
b10000000 r
b100000 L
b100000 T
b100000 q
b11100 #
b11100 0
b11100 %"
b11100 &"
0:
b100000 G
b100000 [
b100000 o
b11010000101000011111111111111110 A
b11010000101000011111111111111110 f
b11010000101000011111111111111110 j
b11100 u
b1010001000011100 ""
b11100 !"
b11000 $
b11000 5
b11000 k
b11000 '"
b0 `
1*
#3150000
1J
b11100 #
b11100 0
b11100 %"
b11100 &"
b10100 ""
b11111 +"
b0 ?
b0 ^
b0 ~
b11111111111111111111111111111110 4
b11111111111111111111111111111110 i
b11111111111111111111111111111110 p
b11111 7
b11111 }
0O
1B
b0 ;
b0 _
b0 x
b1 P
b1 U
b1 ]
0I
b11111111111111111111111111100000 D
b11111111111111111111111111100000 a
b11111111111111111111111111100000 t
b11111111111111111111111111100000 (
b11111111111111111111111111100000 K
b11111111111111111111111111100000 W
b11111111111111111111111111100000 X
b11111111111111111111111111100000 c
b11111111111111111111111111100000 r
b0 M
b0 V
b0 n
b11111 m
b1000 %
b1000 <
b1000 Z
b1000 e
b1000 ,"
b100000 &
b100000 =
b100000 R
b100000 $"
b100000 -"
b10100001111111111111111000 #"
b1111111111111110 3
b1111111111111110 h
b11111 .
b11111 {
b1 !
b1 ,
b1 z
b1 )"
b101 "
b101 -
b101 ("
b110100 /
b110100 \
b11010000101000011111111111111110 6
b11010000101000011111111111111110 g
0>
0*
#3200000
0J
b11000 D
b11000 a
b11000 t
b11000 (
b11000 K
b11000 W
b11000 X
b11000 c
b11000 r
b100000 M
b100000 V
b100000 n
b1000 L
b1000 T
b1000 q
b11111111111111111111111111100000 8
b11111111111111111111111111100000 w
b11111111111111111111111111100000 *"
b100000 Q
b100000 S
b100000 l
b1000 G
b1000 [
b1000 o
b11111111111111111111111111100000 H
b11111111111111111111111111100000 Y
b11111111111111111111111111100000 '
b11111111111111111111111111100000 E
b11111111111111111111111111100000 b
b11111111111111111111111111100000 v
b1 `
1*
#3250000
0*
#3300000
b11000 8
b11000 w
b11000 *"
b11000 '
b11000 E
b11000 b
b11000 v
b11000 H
b11000 Y
b101 `
1*
#3350000
1>
0*
#3400000
b100000 #
b100000 0
b100000 %"
b100000 &"
b0 `
b11101000000000000000000000010100 A
b11101000000000000000000000010100 f
b11101000000000000000000000010100 j
b100000 u
b11000 ""
b100000 !"
b11100 $
b11100 5
b11100 k
b11100 '"
1*
#3450000
b101000 D
b101000 a
b101000 t
b1110000 ""
b100000 8
b100000 w
b100000 *"
b1010000 #
b1010000 0
b1010000 %"
b1010000 &"
b101000 (
b101000 K
b101000 W
b101000 X
b101000 c
b101000 r
b10100 4
b10100 i
b10100 p
09
0B
b11 ?
b11 ^
b11 ~
b0 P
b0 U
b0 ]
b0 m
b0 %
b0 <
b0 Z
b0 e
b0 ,"
b0 &
b0 =
b0 R
b0 $"
b0 -"
b1010000 #"
b10100 3
b10100 h
b0 .
b0 {
b0 !
b0 ,
b0 z
b0 )"
b0 "
b0 -
b0 ("
b111010 /
b111010 \
0>
b11101000000000000000000000010100 6
b11101000000000000000000000010100 g
0*
#3500000
1I
b0 D
b0 a
b0 t
b0 (
b0 K
b0 W
b0 X
b0 c
b0 r
b0 L
b0 T
b0 q
b0 M
b0 V
b0 n
1:
b101000 '
b101000 E
b101000 b
b101000 v
b101000 H
b101000 Y
b0 G
b0 [
b0 o
b0 Q
b0 S
b0 l
b1 `
1*
#3550000
1>
0*
#3600000
0:
b1010100 8
b1010100 w
b1010100 *"
b0 H
b0 Y
b0 '
b0 E
b0 b
b0 v
b0 `
b11000000001000100000000000000100 A
b11000000001000100000000000000100 f
b11000000001000100000000000000100 j
b1010100 u
b10100100 ""
b1010100 !"
b1010000 $
b1010000 5
b1010000 k
b1010000 '"
1*
#3650000
0I
b100 D
b100 a
b100 t
b100 (
b100 K
b100 W
b100 X
b100 c
b100 r
b1100100 ""
b100 L
b100 T
b100 q
b0 8
b0 w
b0 *"
b100 4
b100 i
b100 p
1N
19
1B
b0 ?
b0 ^
b0 ~
b1010100 #
b1010100 0
b1010100 %"
b1010100 &"
b10 %
b10 <
b10 Z
b10 e
b10 ,"
b1000 &
b1000 =
b1000 R
b1000 $"
b1000 -"
b100010000000000000010000 #"
b100 3
b100 h
b10 !
b10 ,
b10 z
b10 )"
b1 "
b1 -
b1 ("
b110000 /
b110000 \
0>
b11000000001000100000000000000100 6
b11000000001000100000000000000100 g
0*
#3700000
b1100 D
b1100 a
b1100 t
b1100 (
b1100 K
b1100 W
b1100 X
b1100 c
b1100 r
b100 8
b100 w
b100 *"
b1000 M
b1000 V
b1000 n
b100 '
b100 E
b100 b
b100 v
b100 H
b100 Y
b10 G
b10 [
b10 o
b1000 Q
b1000 S
b1000 l
b1 `
1*
#3750000
0*
#3800000
b1100 8
b1100 w
b1100 *"
b1100 H
b1100 Y
b1100 '
b1100 E
b1100 b
b1100 v
b10 `
1*
#3850000
0*
#3900000
11
b11 `
1*
#3950000
1>
0*
#4000000
01
b1011000 #
b1011000 0
b1011000 %"
b1011000 &"
b0 `
b11000100001011010000000000000100 A
b11000100001011010000000000000100 f
b11000100001011010000000000000100 j
b1011000 u
b1101000 ""
b1011000 !"
b1010100 $
b1010100 5
b1010100 k
b1010100 '"
1*
#4050000
b1101 +"
b1101 7
b1101 }
b10 D
b10 a
b10 t
b10 C
b10 d
b10 s
1F
12
b1 ;
b1 _
b1 x
b0 %
b0 <
b0 Z
b0 e
b0 ,"
b101101000000000000010000 #"
b1101 !
b1101 ,
b1101 z
b1101 )"
b110001 /
b110001 \
0>
b11000100001011010000000000000100 6
b11000100001011010000000000000100 g
0*
#4100000
b10 8
b10 w
b10 *"
b10 '
b10 E
b10 b
b10 v
b0 G
b0 [
b0 o
b1 `
1*
#4150000
0*
#4200000
b10 `
1*
#4250000
0*
#4300000
b11 `
1*
#4350000
0*
#4400000
1:
b100 `
1*
#4450000
b10 %
b10 <
b10 Z
b10 e
b10 ,"
1>
0*
#4500000
b1011100 #
b1011100 0
b1011100 %"
b1011100 &"
0:
b10 G
b10 [
b10 o
b11100111111000000000000000000000 A
b11100111111000000000000000000000 f
b11100111111000000000000000000000 j
b1011100 u
b1101100 ""
b1011100 !"
b1011000 $
b1011000 5
b1011000 k
b1011000 '"
b0 `
1*
#4550000
b1010 (
b1010 K
b1010 W
b1010 X
b1010 c
b1010 r
b1011100 ""
b11111 +"
b10 L
b10 T
b10 q
b1010 D
b1010 a
b1010 t
bz C
bz d
bz s
b100000 #
b100000 0
b100000 %"
b100000 &"
b0 4
b0 i
b0 p
b11111 7
b11111 }
0N
0F
02
0B
b10 ?
b10 ^
b10 ~
b0 ;
b0 _
b0 x
b0 %
b0 <
b0 Z
b0 e
b0 ,"
b100000 &
b100000 =
b100000 R
b100000 $"
b100000 -"
b1111100000000000000000000000 #"
b0 3
b0 h
b0 !
b0 ,
b0 z
b0 )"
b11111 "
b11111 -
b11111 ("
b111001 /
b111001 \
b11100111111000000000000000000000 6
b11100111111000000000000000000000 g
0>
0*
#4600000
b100000 D
b100000 a
b100000 t
b100000 (
b100000 K
b100000 W
b100000 X
b100000 c
b100000 r
b100000 M
b100000 V
b100000 n
b0 L
b0 T
b0 q
b1010 8
b1010 w
b1010 *"
b100000 Q
b100000 S
b100000 l
b0 G
b0 [
b0 o
b1010 H
b1010 Y
b1010 '
b1010 E
b1010 b
b1010 v
b1 `
1*
#4650000
1>
0*
#4700000
b100000 8
b100000 w
b100000 *"
b100000 '
b100000 E
b100000 b
b100000 v
b100000 H
b100000 Y
b10011101101000010100000000000000 A
b10011101101000010100000000000000 f
b10011101101000010100000000000000 j
b100100 u
b100100 ""
b100100 !"
b100000 $
b100000 5
b100000 k
b100000 '"
b0 `
1*
#4750000
b1000 +"
b1000 7
b1000 }
1I
b0 D
b0 a
b0 t
b10000000000100100 ""
b0 (
b0 K
b0 W
b0 X
b0 c
b0 r
b100000000000000 4
b100000000000000 i
b100000000000000 p
b0 ?
b0 ^
b0 ~
b10 ;
b10 _
b10 x
b110 P
b110 U
b110 ]
b100100 #
b100100 0
b100100 %"
b100100 &"
b1000 %
b1000 <
b1000 Z
b1000 e
b1000 ,"
b10 &
b10 =
b10 R
b10 $"
b10 -"
b110100001010000000000000000 #"
b100000000000000 3
b100000000000000 h
b1000 .
b1000 {
b1 !
b1 ,
b1 z
b1 )"
b1101 "
b1101 -
b1101 ("
b100111 /
b100111 \
b10011101101000010100000000000000 6
b10011101101000010100000000000000 g
0>
0*
#4800000
0I
b1 D
b1 a
b1 t
b1 (
b1 K
b1 W
b1 X
b1 c
b1 r
b10 M
b10 V
b10 n
b1000 L
b1000 T
b1000 q
b0 8
b0 w
b0 *"
b10 Q
b10 S
b10 l
b1000 G
b1000 [
b1000 o
b0 H
b0 Y
b0 '
b0 E
b0 b
b0 v
b1 `
1*
#4850000
0*
#4900000
b1 8
b1 w
b1 *"
b1 '
b1 E
b1 b
b1 v
b1 H
b1 Y
b110 `
1*
#4950000
0*
#5000000
1:
b111 `
1*
#5050000
1>
0*
#5100000
b101000 #
b101000 0
b101000 %"
b101000 &"
0:
b1000000011101111111111111110 A
b1000000011101111111111111110 f
b1000000011101111111111111110 j
b101000 u
b10000000000101000 ""
b101000 !"
b100100 $
b100100 5
b100100 k
b100100 '"
b0 `
1*
#5150000
1I
b0 D
b0 a
b0 t
b100000 ""
b1110 +"
b11111111111111111111111111111110 L
b11111111111111111111111111111110 T
b11111111111111111111111111111110 q
b0 (
b0 K
b0 W
b0 X
b0 c
b0 r
b11111111111111111111111111111110 4
b11111111111111111111111111111110 i
b11111111111111111111111111111110 p
b1110 7
b1110 }
1N
1B
b1 ;
b1 _
b1 x
b0 P
b0 U
b0 ]
b11111 m
b0 %
b0 <
b0 Z
b0 e
b0 ,"
b0 &
b0 =
b0 R
b0 $"
b0 -"
b1110111111111111111000 #"
b1111111111111110 3
b1111111111111110 h
b11111 .
b11111 {
b1110 !
b1110 ,
b1110 z
b1110 )"
b0 "
b0 -
b0 ("
b10 /
b10 \
b1000000011101111111111111110 6
b1000000011101111111111111110 g
0>
0*
