Verilog_Folder/MultiCycleCPU/test.vcd
$date
	Mon Jul  5 20:47:10 2021
$end
$version
	Icarus Verilog
$end
$timescale
	1ps
$end
$scope module CPU_sim_1 $end
$var wire 32 ! ReadData1 [31:0] $end
$var wire 32 " ReadData2 [31:0] $end
$var wire 5 # rt [4:0] $end
$var wire 5 $ rs [4:0] $end
$var wire 32 % nextIAddr [31:0] $end
$var wire 32 & currentIAddr [31:0] $end
$var wire 32 ' DataBus [31:0] $end
$var wire 32 ( ALU_result [31:0] $end
$var reg 1 ) Reset $end
$var reg 1 * clk $end
$scope module uut $end
$var wire 1 + InsMemRW $end
$var wire 32 , ReadData1 [31:0] $end
$var wire 32 - ReadData2 [31:0] $end
$var wire 1 ) Reset $end
$var wire 1 * clk $end
$var wire 5 . rt [4:0] $end
$var wire 5 / rs [4:0] $end
$var wire 5 0 rd [4:0] $end
$var wire 6 1 opcode [5:0] $end
$var wire 32 2 nextIAddr [31:0] $end
$var wire 1 3 mWR $end
$var wire 1 4 mRD $end
$var wire 16 5 immediate [15:0] $end
$var wire 32 6 extended [31:0] $end
$var wire 32 7 currentIAddr [31:0] $end
$var wire 32 8 bincode [31:0] $end
$var wire 5 9 WriteReg [4:0] $end
$var wire 32 : WriteData [31:0] $end
$var wire 1 ; WrRegDSrc $end
$var wire 1 < RegWre $end
$var wire 2 = RegDst [1:0] $end
$var wire 1 > PCWre $end
$var wire 2 ? PCSrc [1:0] $end
$var wire 1 @ IRWre $end
$var wire 32 A IDataOut [31:0] $end
$var wire 1 B ExtSel $end
$var wire 32 C DataOut [31:0] $end
$var wire 32 D DataBus_before [31:0] $end
$var wire 32 E DataBus [31:0] $end
$var wire 1 F DBDataSrc $end
$var wire 32 G BDR_out [31:0] $end
$var wire 32 H ALUoutDR_out [31:0] $end
$var wire 1 I ALU_zero $end
$var wire 1 J ALU_sign $end
$var wire 32 K ALU_result [31:0] $end
$var wire 32 L ALU_inB [31:0] $end
$var wire 32 M ALU_inA [31:0] $end
$var wire 1 N ALUSrcB $end
$var wire 1 O ALUSrcA $end
$var wire 3 P ALUOp [2:0] $end
$var wire 32 Q ADR_out [31:0] $end
$scope module ADR $end
$var wire 1 ) Reset $end
$var wire 1 * clk $end
$var wire 32 R in [31:0] $end
$var reg 32 S out [31:0] $end
$upscope $end
$scope module ALU $end
$var wire 1 I zero $end
$var wire 1 J sign $end
$var wire 32 T B [31:0] $end
$var wire 3 U ALUOp [2:0] $end
$var wire 32 V A [31:0] $end
$var reg 32 W result [31:0] $end
$upscope $end
$scope module ALUoutDR $end
$var wire 1 ) Reset $end
$var wire 1 * clk $end
$var wire 32 X in [31:0] $end
$var reg 32 Y out [31:0] $end
$upscope $end
$scope module BDR $end
$var wire 1 ) Reset $end
$var wire 1 * clk $end
$var wire 32 Z in [31:0] $end
$var reg 32 [ out [31:0] $end
$upscope $end
$scope module ControlUnit $end
$var wire 1 + InsMemRW $end
$var wire 1 * clk $end
$var wire 6 \ opcode [5:0] $end
$var wire 1 ) rst $end
$var wire 1 J sign $end
$var wire 1 I zero $end
$var reg 3 ] ALUOp [2:0] $end
$var reg 1 O ALUSrcA $end
$var reg 1 N ALUSrcB $end
$var reg 1 F DBDataSrc $end
$var reg 1 B ExtSel $end
$var reg 1 @ IRWre $end
$var reg 2 ^ PCSrc [1:0] $end
$var reg 1 > PCWre $end
$var reg 2 _ RegDst [1:0] $end
$var reg 1 < RegWre $end
$var reg 1 ; WrRegDSrc $end
$var reg 1 4 mRD $end
$var reg 1 3 mWR $end
$var reg 3 ` state [2:0] $end
$upscope $end
$scope module DBDR $end
$var wire 1 ) Reset $end
$var wire 1 * clk $end
$var wire 32 a in [31:0] $end
$var reg 32 b out [31:0] $end
$upscope $end
$scope module DataMemory $end
$var wire 32 c DAddr [31:0] $end
$var wire 32 d DataIn [31:0] $end
$var wire 1 4 RD $end
$var wire 1 3 WR $end
$var wire 1 * clk $end
$var wire 32 e DataOut [31:0] $end
$upscope $end
$scope module IR $end
$var wire 1 @ IRWre $end
$var wire 1 * clk $end
$var wire 32 f insIn [31:0] $end
$var reg 32 g insOut [31:0] $end
$upscope $end
$scope module ImmediateExtend $end
$var wire 1 B ExtSel $end
$var wire 16 h original [15:0] $end
$var reg 32 i extended [31:0] $end
$upscope $end
$scope module InstructionMemory $end
$var wire 32 j IDataOut [31:0] $end
$var wire 32 k IAddr [31:0] $end
$upscope $end
$scope module Mux_ALU_inA $end
$var wire 1 O choice $end
$var wire 32 l in0 [31:0] $end
$var wire 32 m in1 [31:0] $end
$var wire 32 n out [31:0] $end
$upscope $end
$scope module Mux_ALU_inB $end
$var wire 1 N choice $end
$var wire 32 o in0 [31:0] $end
$var wire 32 p in1 [31:0] $end
$var wire 32 q out [31:0] $end
$upscope $end
$scope module Mux_DBDR $end
$var wire 1 F choice $end
$var wire 32 r in0 [31:0] $end
$var wire 32 s in1 [31:0] $end
$var wire 32 t out [31:0] $end
$upscope $end
$scope module Mux_WriteData $end
$var wire 1 ; choice $end
$var wire 32 u in0 [31:0] $end
$var wire 32 v in1 [31:0] $end
$var wire 32 w out [31:0] $end
$upscope $end
$scope module Mux_WriteReg $end
$var wire 2 x choice [1:0] $end
$var wire 5 y in0 [4:0] $end
$var wire 5 z in1 [4:0] $end
$var wire 5 { in2 [4:0] $end
$var wire 5 | in3 [4:0] $end
$var reg 5 } out [4:0] $end
$upscope $end
$scope module Mux_nextIAddr $end
$var wire 2 ~ choice [1:0] $end
$var wire 32 !" in0 [31:0] $end
$var wire 32 "" in1 [31:0] $end
$var wire 32 #" in2 [31:0] $end
$var wire 32 $" in3 [31:0] $end
$var reg 32 %" out [31:0] $end
$upscope $end
$scope module PC $end
$var wire 1 > PCWre $end
$var wire 1 ) Reset $end
$var wire 1 * clk $end
$var wire 32 &" nextIAddr [31:0] $end
$var reg 32 '" currentIAddr [31:0] $end
$upscope $end
$upscope $end
$upscope $end
$enddefinitions $end
#0
$dumpvars
b0 '"
b0 &"
b0 %"
b0xxxxxxxxxxxxxxxxxxxxxxxxxx00 $"
bz #"
bx ""
b100 !"
bx ~
bx }
bz |
bx {
bx z
b11111 y
bx x
bx w
bx v
b100 u
bx t
bx s
bx r
bx q
bx p
bz o
bx n
b0xxxxx m
bz l
b0 k
b1000000000010000000000001000 j
bx i
bx h
bx g
b1000000000010000000000001000 f
bx e
bz d
bx c
bx b
bx a
b0 `
bx _
bx ^
bx ]
bx \
bz [
bz Z
bx Y
bx X
bx W
bx V
bx U
bx T
bz S
bz R
bz Q
bx P
xO
xN
bx M
bx L
bx K
xJ
xI
bx H
bz G
xF
bx E
bx D
bx C
xB
b1000000000010000000000001000 A
1@
bx ?
1>
bx =
x<
x;
bx :
bx 9
bx 8
b0 7
bx 6
bx 5
x4
x3
b0 2
bx 1
bx 0
bx /
bx .
bz -
bz ,
1+
1*
0)
bx (
bx '
b0 &
b0 %
bx $
bx #
bz "
bz !
$end
#25000
1)
#50000
b1 9
b1 }
b100100 ""
bz M
bz V
bz n
b1000 L
b1000 T
b1000 q
bz C
bz e
bz s
b100 %
b100 2
b100 %"
b100 &"
b1000 6
b1000 i
b1000 p
0O
1N
0F
1;
04
1B
b0 ?
b0 ^
b0 ~
b1 =
b1 _
b1 x
b0 P
b0 U
b0 ]
b0 m
03
0<
b1000000000000100000 $"
b1000 5
b1000 h
b0 0
b0 {
b1 #
b1 .
b1 z
b0 $
b0 /
b10 1
b10 \
0>
b1000000000010000000000001000 8
b1000000000010000000000001000 g
0*
#100000
b1 `
1*
#150000
0*
#200000
b110 `
1*
#250000
0*
#300000
1<
b111 `
1*
#350000
1>
0*
#400000
0<
b1000 %
b1000 2
b1000 %"
b1000 &"
b0 `
b1001000000000100000000000000010 A
b1001000000000100000000000000010 f
b1001000000000100000000000000010 j
b1000 u
b101000 ""
b1000 !"
b100 &
b100 7
b100 k
b100 '"
1*
#450000
0I
bx1x D
bx1x a
bx1x t
b10 L
b10 T
b10 q
b10000 ""
bx1x (
bx1x K
bx1x W
bx1x X
bx1x c
bx1x r
b10 6
b10 i
b10 p
b10 9
b10 }
0B
b11 P
b11 U
b11 ]
b10000000000000001000 $"
b10 5
b10 h
b10 #
b10 .
b10 z
b10010 1
b10010 \
0>
b1001000000000100000000000000010 8
b1001000000000100000000000000010 g
0*
#500000
bx1x :
bx1x w
bx1x '
bx1x E
bx1x b
bx1x v
bx1x H
bx1x Y
b1 `
1*
#550000
0*
#600000
b110 `
1*
#650000
0*
#700000
1<
b111 `
1*
#750000
1>
0*
#800000
0<
b1100 %
b1100 2
b1100 %"
b1100 &"
b0 `
b1001100010000110000000000001000 A
b1001100010000110000000000001000 f
b1001100010000110000000000001000 j
b1100 u
b10100 ""
b1100 !"
b1000 &
b1000 7
b1000 k
b1000 '"
1*
#850000
xI
bx D
bx a
bx t
b1000 L
b1000 T
b1000 q
b101100 ""
bx (
bx K
bx W
bx X
bx c
bx r
b1000 6
b1000 i
b1000 p
b11 9
b11 }
b111 P
b111 U
b111 ]
b1000011000000000000100000 $"
b1000 5
b1000 h
b11 #
b11 .
b11 z
b10 $
b10 /
b10011 1
b10011 \
0>
b1001100010000110000000000001000 8
b1001100010000110000000000001000 g
0*
#900000
bx :
bx w
bx '
bx E
bx b
bx v
bx H
bx Y
b1 `
1*
#950000
0*
#1000000
b110 `
1*
#1050000
0*
#1100000
1<
b111 `
1*
#1150000
1>
0*
#1200000
0<
b10000 %
b10000 2
b10000 %"
b10000 &"
b0 `
b100011000010010000000000000 A
b100011000010010000000000000 f
b100011000010010000000000000 j
b10000 u
b110000 ""
b10000 !"
b1100 &
b1100 7
b1100 k
b1100 '"
1*
#1250000
b1000000000010000 ""
bz L
bz T
bz q
b10000000000000 6
b10000000000000 i
b10000000000000 p
b100 9
b100 }
0N
b10 =
b10 _
b10 x
b1 P
b1 U
b1 ]
b1100001001000000000000000 $"
b10000000000000 5
b10000000000000 h
b100 0
b100 {
b1 #
b1 .
b1 z
b11 $
b11 /
b1 1
b1 \
0>
b100011000010010000000000000 8
b100011000010010000000000000 g
0*
#1300000
b1 `
1*
#1350000
0*
#1400000
b110 `
1*
#1450000
0*
#1500000
1<
b111 `
1*
#1550000
1>
0*
#1600000
0<
b10100 %
b10100 2
b10100 %"
b10100 &"
b0 `
b1000000100000100010100000000000 A
b1000000100000100010100000000000 f
b1000000100000100010100000000000 j
b10100 u
b1000000000010100 ""
b10100 !"
b10000 &
b10000 7
b10000 k
b10000 '"
1*
#1650000
b1010000000010100 ""
b10100000000000 6
b10100000000000 i
b10100000000000 p
b101 9
b101 }
b100 P
b100 U
b100 ]
b10000010001010000000000000 $"
b10100000000000 5
b10100000000000 h
b101 0
b101 {
b10 #
b10 .
b10 z
b100 $
b100 /
b10000 1
b10000 \
0>
b1000000100000100010100000000000 8
b1000000100000100010100000000000 g
0*
#1700000
b1 `
1*
#1750000
0*
#1800000
b110 `
1*
#1850000
0*
#1900000
1<
b111 `
1*
#1950000
1>
0*
#2000000
0<
b11000 %
b11000 2
b11000 %"
b11000 &"
b0 `
b1100000000001010010100010000000 A
b1100000000001010010100010000000 f
b1100000000001010010100010000000 j
b11000 u
b1010000000011000 ""
b11000 !"
b10100 &
b10100 7
b10100 k
b10100 '"
1*
#2050000
zJ
bz00 D
bz00 a
bz00 t
bz00 (
bz00 K
bz00 W
bz00 X
bz00 c
bz00 r
b1010001000011000 ""
b10 M
b10 V
b10 n
b10100010000000 6
b10100010000000 i
b10100010000000 p
1O
b10 P
b10 U
b10 ]
b10 m
b101001010001000000000 $"
b10100010000000 5
b10100010000000 h
b101 #
b101 .
b101 z
b0 $
b0 /
b11000 1
b11000 \
0>
b1100000000001010010100010000000 8
b1100000000001010010100010000000 g
0*
#2100000
bz00 :
bz00 w
bz00 '
bz00 E
bz00 b
bz00 v
bz00 H
bz00 Y
b1 `
1*
#2150000
0*
#2200000
b110 `
1*
#2250000
0*
#2300000
1<
b111 `
1*
#2350000
1>
0*
#2400000
0<
b11100 %
b11100 2
b11100 %"
b11100 &"
b0 `
b11010000101000011111111111111110 A
b11010000101000011111111111111110 f
b11010000101000011111111111111110 j
b11100 u
b1010001000011100 ""
b11100 !"
b11000 &
b11000 7
b11000 k
b11000 '"
1*
#2450000
xJ
b10100 ""
b0 %
b0 2
b0 %"
b0 &"
b11111111111111111111111111111110 6
b11111111111111111111111111111110 i
b11111111111111111111111111111110 p
b11111 9
b11111 }
b0x ?
b0x ^
b0x ~
0O
1B
b0 =
b0 _
b0 x
b1 P
b1 U
b1 ]
bx D
bx a
bx t
bx (
bx K
bx W
bx X
bx c
bx r
bz M
bz V
bz n
b11111 m
b10100001111111111111111000 $"
b1111111111111110 5
b1111111111111110 h
b11111 0
b11111 {
b1 #
b1 .
b1 z
b101 $
b101 /
b110100 1
b110100 \
0>
b11010000101000011111111111111110 8
b11010000101000011111111111111110 g
0*
#2500000
bx :
bx w
bx '
bx E
bx b
bx v
bx H
bx Y
b1 `
1*
#2550000
0*
#2600000
b101 `
1*
#2650000
1>
0*
#2700000
b1000000000010000000000001000 A
b1000000000010000000000001000 f
b1000000000010000000000001000 j
b100 u
b11111111111111111111111111111100 ""
b100 !"
b0 &
b0 7
b0 k
b0 '"
b0 `
1*
#2750000
b1 9
b1 }
b100100 ""
b1000 L
b1000 T
b1000 q
b100 %
b100 2
b100 %"
b100 &"
b1000 6
b1000 i
b1000 p
1N
b0 ?
b0 ^
b0 ~
b1 =
b1 _
b1 x
b0 P
b0 U
b0 ]
b0 m
b1000000000000100000 $"
b1000 5
b1000 h
b0 0
b0 {
b0 $
b0 /
b10 1
b10 \
b1000000000010000000000001000 8
b1000000000010000000000001000 g
0>
0*
#2800000
b1 `
1*
#2850000
0*
#2900000
b110 `
1*
#2950000
0*
#3000000
1<
b111 `
1*
#3050000
1>
0*
#3100000
b1000 %
b1000 2
b1000 %"
b1000 &"
0<
b1001000000000100000000000000010 A
b1001000000000100000000000000010 f
b1001000000000100000000000000010 j
b1000 u
b101000 ""
b1000 !"
b100 &
b100 7
b100 k
b100 '"
b0 `
1*
#3150000
0I
bx1x D
bx1x a
bx1x t
b10 L
b10 T
b10 q
b10000 ""
bx1x (
bx1x K
bx1x W
bx1x X
bx1x c
bx1x r
b10 6
b10 i
b10 p
b10 9
b10 }
0B
b11 P
b11 U
b11 ]
b10000000000000001000 $"
b10 5
b10 h
b10 #
b10 .
b10 z
b10010 1
b10010 \
b1001000000000100000000000000010 8
b1001000000000100000000000000010 g
0>
0*
#3200000
bx1x :
bx1x w
bx1x H
bx1x Y
bx1x '
bx1x E
bx1x b
bx1x v
b1 `
1*
#3250000
0*
#3300000
b110 `
1*
#3350000
0*
#3400000
1<
b111 `
1*
#3450000
1>
0*
#3500000
b1100 %
b1100 2
b1100 %"
b1100 &"
0<
b1001100010000110000000000001000 A
b1001100010000110000000000001000 f
b1001100010000110000000000001000 j
b1100 u
b10100 ""
b1100 !"
b1000 &
b1000 7
b1000 k
b1000 '"
b0 `
1*
#3550000
xI
bx D
bx a
bx t
b1000 L
b1000 T
b1000 q
b101100 ""
bx (
bx K
bx W
bx X
bx c
bx r
b1000 6
b1000 i
b1000 p
b11 9
b11 }
b111 P
b111 U
b111 ]
b1000011000000000000100000 $"
b1000 5
b1000 h
b11 #
b11 .
b11 z
b10 $
b10 /
b10011 1
b10011 \
b1001100010000110000000000001000 8
b1001100010000110000000000001000 g
0>
0*
#3600000
bx :
bx w
bx H
bx Y
bx '
bx E
bx b
bx v
b1 `
1*
#3650000
0*
#3700000
b110 `
1*
#3750000
0*
#3800000
1<
b111 `
1*
#3850000
1>
0*
#3900000
b10000 %
b10000 2
b10000 %"
b10000 &"
0<
b100011000010010000000000000 A
b100011000010010000000000000 f
b100011000010010000000000000 j
b10000 u
b110000 ""
b10000 !"
b1100 &
b1100 7
b1100 k
b1100 '"
b0 `
1*
#3950000
b1000000000010000 ""
bz L
bz T
bz q
b10000000000000 6
b10000000000000 i
b10000000000000 p
b100 9
b100 }
0N
b10 =
b10 _
b10 x
b1 P
b1 U
b1 ]
b1100001001000000000000000 $"
b10000000000000 5
b10000000000000 h
b100 0
b100 {
b1 #
b1 .
b1 z
b11 $
b11 /
b1 1
b1 \
b100011000010010000000000000 8
b100011000010010000000000000 g
0>
0*
#4000000
b1 `
1*
#4050000
0*
#4100000
b110 `
1*
#4150000
0*
#4200000
1<
b111 `
1*
#4250000
1>
0*
#4300000
b10100 %
b10100 2
b10100 %"
b10100 &"
0<
b1000000100000100010100000000000 A
b1000000100000100010100000000000 f
b1000000100000100010100000000000 j
b10100 u
b1000000000010100 ""
b10100 !"
b10000 &
b10000 7
b10000 k
b10000 '"
b0 `
1*
#4350000
b1010000000010100 ""
b10100000000000 6
b10100000000000 i
b10100000000000 p
b101 9
b101 }
b100 P
b100 U
b100 ]
b10000010001010000000000000 $"
b10100000000000 5
b10100000000000 h
b101 0
b101 {
b10 #
b10 .
b10 z
b100 $
b100 /
b10000 1
b10000 \
b1000000100000100010100000000000 8
b1000000100000100010100000000000 g
0>
0*
#4400000
b1 `
1*
#4450000
0*
#4500000
b110 `
1*
#4550000
0*
#4600000
1<
b111 `
1*
#4650000
1>
0*
#4700000
b11000 %
b11000 2
b11000 %"
b11000 &"
0<
b1100000000001010010100010000000 A
b1100000000001010010100010000000 f
b1100000000001010010100010000000 j
b11000 u
b1010000000011000 ""
b11000 !"
b10100 &
b10100 7
b10100 k
b10100 '"
b0 `
1*
#4750000
zJ
bz00 D
bz00 a
bz00 t
bz00 (
bz00 K
bz00 W
bz00 X
bz00 c
bz00 r
b1010001000011000 ""
b10 M
b10 V
b10 n
b10100010000000 6
b10100010000000 i
b10100010000000 p
1O
b10 P
b10 U
b10 ]
b10 m
b101001010001000000000 $"
b10100010000000 5
b10100010000000 h
b101 #
b101 .
b101 z
b0 $
b0 /
b11000 1
b11000 \
b1100000000001010010100010000000 8
b1100000000001010010100010000000 g
0>
0*
#4800000
bz00 :
bz00 w
bz00 H
bz00 Y
bz00 '
bz00 E
bz00 b
bz00 v
b1 `
1*
#4850000
0*
#4900000
b110 `
1*
#4950000
0*
#5000000
1<
b111 `
1*
#5050000
1>
0*
#5100000
b11100 %
b11100 2
b11100 %"
b11100 &"
0<
b11010000101000011111111111111110 A
b11010000101000011111111111111110 f
b11010000101000011111111111111110 j
b11100 u
b1010001000011100 ""
b11100 !"
b11000 &
b11000 7
b11000 k
b11000 '"
b0 `
1*
#5150000
xJ
b10100 ""
b0 %
b0 2
b0 %"
b0 &"
b11111111111111111111111111111110 6
b11111111111111111111111111111110 i
b11111111111111111111111111111110 p
b11111 9
b11111 }
b0x ?
b0x ^
b0x ~
0O
1B
b0 =
b0 _
b0 x
b1 P
b1 U
b1 ]
bx D
bx a
bx t
bx (
bx K
bx W
bx X
bx c
bx r
bz M
bz V
bz n
b11111 m
b10100001111111111111111000 $"
b1111111111111110 5
b1111111111111110 h
b11111 0
b11111 {
b1 #
b1 .
b1 z
b101 $
b101 /
b110100 1
b110100 \
b11010000101000011111111111111110 8
b11010000101000011111111111111110 g
0>
0*
#5200000
bx :
bx w
bx H
bx Y
bx '
bx E
bx b
bx v
b1 `
1*
#5250000
0*
#5300000
b101 `
1*
#5350000
1>
0*
#5400000
b0 `
b1000000000010000000000001000 A
b1000000000010000000000001000 f
b1000000000010000000000001000 j
b100 u
b11111111111111111111111111111100 ""
b100 !"
b0 &
b0 7
b0 k
b0 '"
1*
#5450000
b1 9
b1 }
b100100 ""
b1000 L
b1000 T
b1000 q
b100 %
b100 2
b100 %"
b100 &"
b1000 6
b1000 i
b1000 p
1N
b0 ?
b0 ^
b0 ~
b1 =
b1 _
b1 x
b0 P
b0 U
b0 ]
b0 m
b1000000000000100000 $"
b1000 5
b1000 h
b0 0
b0 {
b0 $
b0 /
b10 1
b10 \
0>
b1000000000010000000000001000 8
b1000000000010000000000001000 g
0*
#5500000
b1 `
1*
#5550000
0*
#5600000
b110 `
1*
#5650000
0*
#5700000
1<
b111 `
1*
#5750000
1>
0*
#5800000
0<
b1000 %
b1000 2
b1000 %"
b1000 &"
b0 `
b1001000000000100000000000000010 A
b1001000000000100000000000000010 f
b1001000000000100000000000000010 j
b1000 u
b101000 ""
b1000 !"
b100 &
b100 7
b100 k
b100 '"
1*
#5850000
0I
bx1x D
bx1x a
bx1x t
b10 L
b10 T
b10 q
b10000 ""
bx1x (
bx1x K
bx1x W
bx1x X
bx1x c
bx1x r
b10 6
b10 i
b10 p
b10 9
b10 }
0B
b11 P
b11 U
b11 ]
b10000000000000001000 $"
b10 5
b10 h
b10 #
b10 .
b10 z
b10010 1
b10010 \
0>
b1001000000000100000000000000010 8
b1001000000000100000000000000010 g
0*
#5900000
bx1x :
bx1x w
bx1x '
bx1x E
bx1x b
bx1x v
bx1x H
bx1x Y
b1 `
1*
#5950000
0*
#6000000
b110 `
1*
#6050000
0*
#6100000
1<
b111 `
1*
#6150000
1>
0*
#6200000
0<
b1100 %
b1100 2
b1100 %"
b1100 &"
b0 `
b1001100010000110000000000001000 A
b1001100010000110000000000001000 f
b1001100010000110000000000001000 j
b1100 u
b10100 ""
b1100 !"
b1000 &
b1000 7
b1000 k
b1000 '"
1*
#6250000
xI
bx D
bx a
bx t
b1000 L
b1000 T
b1000 q
b101100 ""
bx (
bx K
bx W
bx X
bx c
bx r
b1000 6
b1000 i
b1000 p
b11 9
b11 }
b111 P
b111 U
b111 ]
b1000011000000000000100000 $"
b1000 5
b1000 h
b11 #
b11 .
b11 z
b10 $
b10 /
b10011 1
b10011 \
0>
b1001100010000110000000000001000 8
b1001100010000110000000000001000 g
0*
#6300000
bx :
bx w
bx '
bx E
bx b
bx v
bx H
bx Y
b1 `
1*
#6350000
0*
#6400000
b110 `
1*
#6450000
0*
#6500000
1<
b111 `
1*
#6550000
1>
0*
#6600000
0<
b10000 %
b10000 2
b10000 %"
b10000 &"
b0 `
b100011000010010000000000000 A
b100011000010010000000000000 f
b100011000010010000000000000 j
b10000 u
b110000 ""
b10000 !"
b1100 &
b1100 7
b1100 k
b1100 '"
1*
#6650000
b1000000000010000 ""
bz L
bz T
bz q
b10000000000000 6
b10000000000000 i
b10000000000000 p
b100 9
b100 }
0N
b10 =
b10 _
b10 x
b1 P
b1 U
b1 ]
b1100001001000000000000000 $"
b10000000000000 5
b10000000000000 h
b100 0
b100 {
b1 #
b1 .
b1 z
b11 $
b11 /
b1 1
b1 \
0>
b100011000010010000000000000 8
b100011000010010000000000000 g
0*
#6700000
b1 `
1*
#6750000
0*
#6800000
b110 `
1*
#6850000
0*
#6900000
1<
b111 `
1*
#6950000
1>
0*
#7000000
0<
b10100 %
b10100 2
b10100 %"
b10100 &"
b0 `
b1000000100000100010100000000000 A
b1000000100000100010100000000000 f
b1000000100000100010100000000000 j
b10100 u
b1000000000010100 ""
b10100 !"
b10000 &
b10000 7
b10000 k
b10000 '"
1*
#7050000
b1010000000010100 ""
b10100000000000 6
b10100000000000 i
b10100000000000 p
b101 9
b101 }
b100 P
b100 U
b100 ]
b10000010001010000000000000 $"
b10100000000000 5
b10100000000000 h
b101 0
b101 {
b10 #
b10 .
b10 z
b100 $
b100 /
b10000 1
b10000 \
0>
b1000000100000100010100000000000 8
b1000000100000100010100000000000 g
0*
#7100000
b1 `
1*
#7150000
0*
#7200000
b110 `
1*
#7250000
0*
#7300000
1<
b111 `
1*
#7350000
1>
0*
#7400000
0<
b11000 %
b11000 2
b11000 %"
b11000 &"
b0 `
b1100000000001010010100010000000 A
b1100000000001010010100010000000 f
b1100000000001010010100010000000 j
b11000 u
b1010000000011000 ""
b11000 !"
b10100 &
b10100 7
b10100 k
b10100 '"
1*
#7450000
zJ
bz00 D
bz00 a
bz00 t
bz00 (
bz00 K
bz00 W
bz00 X
bz00 c
bz00 r
b1010001000011000 ""
b10 M
b10 V
b10 n
b10100010000000 6
b10100010000000 i
b10100010000000 p
1O
b10 P
b10 U
b10 ]
b10 m
b101001010001000000000 $"
b10100010000000 5
b10100010000000 h
b101 #
b101 .
b101 z
b0 $
b0 /
b11000 1
b11000 \
0>
b1100000000001010010100010000000 8
b1100000000001010010100010000000 g
0*
#7500000
bz00 :
bz00 w
bz00 '
bz00 E
bz00 b
bz00 v
bz00 H
bz00 Y
b1 `
1*
#7550000
0*
#7600000
b110 `
1*
#7650000
0*
#7700000
1<
b111 `
1*
#7750000
1>
0*
#7800000
0<
b11100 %
b11100 2
b11100 %"
b11100 &"
b0 `
b11010000101000011111111111111110 A
b11010000101000011111111111111110 f
b11010000101000011111111111111110 j
b11100 u
b1010001000011100 ""
b11100 !"
b11000 &
b11000 7
b11000 k
b11000 '"
1*
#7850000
xJ
b10100 ""
b0 %
b0 2
b0 %"
b0 &"
b11111111111111111111111111111110 6
b11111111111111111111111111111110 i
b11111111111111111111111111111110 p
b11111 9
b11111 }
b0x ?
b0x ^
b0x ~
0O
1B
b0 =
b0 _
b0 x
b1 P
b1 U
b1 ]
bx D
bx a
bx t
bx (
bx K
bx W
bx X
bx c
bx r
bz M
bz V
bz n
b11111 m
b10100001111111111111111000 $"
b1111111111111110 5
b1111111111111110 h
b11111 0
b11111 {
b1 #
b1 .
b1 z
b101 $
b101 /
b110100 1
b110100 \
0>
b11010000101000011111111111111110 8
b11010000101000011111111111111110 g
0*
#7900000
bx :
bx w
bx '
bx E
bx b
bx v
bx H
bx Y
b1 `
1*
#7950000
0*
#8000000
b101 `
1*
#8050000
1>
0*
#8100000
b1000000000010000000000001000 A
b1000000000010000000000001000 f
b1000000000010000000000001000 j
b100 u
b11111111111111111111111111111100 ""
b100 !"
b0 &
b0 7
b0 k
b0 '"
b0 `
1*
#8150000
b1 9
b1 }
b100100 ""
b1000 L
b1000 T
b1000 q
b100 %
b100 2
b100 %"
b100 &"
b1000 6
b1000 i
b1000 p
1N
b0 ?
b0 ^
b0 ~
b1 =
b1 _
b1 x
b0 P
b0 U
b0 ]
b0 m
b1000000000000100000 $"
b1000 5
b1000 h
b0 0
b0 {
b0 $
b0 /
b10 1
b10 \
b1000000000010000000000001000 8
b1000000000010000000000001000 g
0>
0*
#8200000
b1 `
1*
#8250000
0*
#8300000
b110 `
1*
#8350000
0*
#8400000
1<
b111 `
1*
#8450000
1>
0*
#8500000
b1000 %
b1000 2
b1000 %"
b1000 &"
0<
b1001000000000100000000000000010 A
b1001000000000100000000000000010 f
b1001000000000100000000000000010 j
b1000 u
b101000 ""
b1000 !"
b100 &
b100 7
b100 k
b100 '"
b0 `
1*
#8550000
0I
bx1x D
bx1x a
bx1x t
b10 L
b10 T
b10 q
b10000 ""
bx1x (
bx1x K
bx1x W
bx1x X
bx1x c
bx1x r
b10 6
b10 i
b10 p
b10 9
b10 }
0B
b11 P
b11 U
b11 ]
b10000000000000001000 $"
b10 5
b10 h
b10 #
b10 .
b10 z
b10010 1
b10010 \
b1001000000000100000000000000010 8
b1001000000000100000000000000010 g
0>
0*
#8600000
bx1x :
bx1x w
bx1x H
bx1x Y
bx1x '
bx1x E
bx1x b
bx1x v
b1 `
1*
#8650000
0*
#8700000
b110 `
1*
#8750000
0*
#8800000
1<
b111 `
1*
#8850000
1>
0*
#8900000
b1100 %
b1100 2
b1100 %"
b1100 &"
0<
b1001100010000110000000000001000 A
b1001100010000110000000000001000 f
b1001100010000110000000000001000 j
b1100 u
b10100 ""
b1100 !"
b1000 &
b1000 7
b1000 k
b1000 '"
b0 `
1*
#8950000
xI
bx D
bx a
bx t
b1000 L
b1000 T
b1000 q
b101100 ""
bx (
bx K
bx W
bx X
bx c
bx r
b1000 6
b1000 i
b1000 p
b11 9
b11 }
b111 P
b111 U
b111 ]
b1000011000000000000100000 $"
b1000 5
b1000 h
b11 #
b11 .
b11 z
b10 $
b10 /
b10011 1
b10011 \
b1001100010000110000000000001000 8
b1001100010000110000000000001000 g
0>
0*
#9000000
bx :
bx w
bx H
bx Y
bx '
bx E
bx b
bx v
b1 `
1*
#9050000
0*
#9100000
b110 `
1*
#9150000
0*
#9200000
1<
b111 `
1*
#9250000
1>
0*
#9300000
b10000 %
b10000 2
b10000 %"
b10000 &"
0<
b100011000010010000000000000 A
b100011000010010000000000000 f
b100011000010010000000000000 j
b10000 u
b110000 ""
b10000 !"
b1100 &
b1100 7
b1100 k
b1100 '"
b0 `
1*
#9350000
b1000000000010000 ""
bz L
bz T
bz q
b10000000000000 6
b10000000000000 i
b10000000000000 p
b100 9
b100 }
0N
b10 =
b10 _
b10 x
b1 P
b1 U
b1 ]
b1100001001000000000000000 $"
b10000000000000 5
b10000000000000 h
b100 0
b100 {
b1 #
b1 .
b1 z
b11 $
b11 /
b1 1
b1 \
b100011000010010000000000000 8
b100011000010010000000000000 g
0>
0*
#9400000
b1 `
1*
#9450000
0*
#9500000
b110 `
1*
#9550000
0*
#9600000
1<
b111 `
1*
#9650000
1>
0*
#9700000
b10100 %
b10100 2
b10100 %"
b10100 &"
0<
b1000000100000100010100000000000 A
b1000000100000100010100000000000 f
b1000000100000100010100000000000 j
b10100 u
b1000000000010100 ""
b10100 !"
b10000 &
b10000 7
b10000 k
b10000 '"
b0 `
1*
#9750000
b1010000000010100 ""
b10100000000000 6
b10100000000000 i
b10100000000000 p
b101 9
b101 }
b100 P
b100 U
b100 ]
b10000010001010000000000000 $"
b10100000000000 5
b10100000000000 h
b101 0
b101 {
b10 #
b10 .
b10 z
b100 $
b100 /
b10000 1
b10000 \
b1000000100000100010100000000000 8
b1000000100000100010100000000000 g
0>
0*
#9800000
b1 `
1*
#9850000
0*
#9900000
b110 `
1*
#9950000
0*
#10000000
1<
b111 `
1*
#10050000
1>
0*
