Verilog_Folder/mult/test.vcd
$date
	Mon Jul  5 20:45:57 2021
$end
$version
	Icarus Verilog
$end
$timescale
	1ps
$end
$scope module CPU_sim_1 $end
$var wire 5 ! rt [4:0] $end
$var wire 5 " rs [4:0] $end
$var wire 32 # opcode [31:0] $end
$var wire 32 $ nextIAddr [31:0] $end
$var wire 32 % inst [31:0] $end
$var wire 32 & currentIAddr [31:0] $end
$var wire 32 ' ReadData2 [31:0] $end
$var wire 32 ( ReadData1 [31:0] $end
$var wire 32 ) DataBus [31:0] $end
$var wire 32 * ALU_result [31:0] $end
$var reg 1 + Reset $end
$var reg 1 , clk $end
$scope module uut $end
$var wire 1 - InsMemRW $end
$var wire 1 + Reset $end
$var wire 1 , clk $end
$var wire 32 . inst [31:0] $end
$var wire 5 / rt [4:0] $end
$var wire 5 0 rs [4:0] $end
$var wire 5 1 rd [4:0] $end
$var wire 6 2 opcode [5:0] $end
$var wire 1 3 opCode $end
$var wire 32 4 nextIAddr [31:0] $end
$var wire 1 5 mWR $end
$var wire 1 6 mRD $end
$var wire 16 7 immediate [15:0] $end
$var wire 32 8 extended [31:0] $end
$var wire 32 9 currentIAddr [31:0] $end
$var wire 32 : bincode [31:0] $end
$var wire 5 ; WriteReg [4:0] $end
$var wire 32 < WriteData [31:0] $end
$var wire 1 = WrRegDSrc $end
$var wire 1 > RegWre $end
$var wire 2 ? RegDst [1:0] $end
$var wire 32 @ ReadData2 [31:0] $end
$var wire 32 A ReadData1 [31:0] $end
$var wire 1 B PCWre $end
$var wire 2 C PCSrc [1:0] $end
$var wire 1 D IRWre $end
$var wire 32 E IDataOut [31:0] $end
$var wire 1 F ExtSel $end
$var wire 32 G DataOut [31:0] $end
$var wire 32 H DataBus_before [31:0] $end
$var wire 32 I DataBus [31:0] $end
$var wire 1 J DBDataSrc $end
$var wire 32 K BDR_out [31:0] $end
$var wire 32 L ALUoutDR_out [31:0] $end
$var wire 1 M ALU_zero $end
$var wire 1 N ALU_sign $end
$var wire 32 O ALU_result [31:0] $end
$var wire 32 P ALU_inB [31:0] $end
$var wire 32 Q ALU_inA [31:0] $end
$var wire 1 R ALUSrcB $end
$var wire 1 S ALUSrcA $end
$var wire 3 T ALUOp [2:0] $end
$var wire 32 U ADR_out [31:0] $end
$scope module ADR $end
$var wire 1 + Reset $end
$var wire 1 , clk $end
$var wire 32 V in [31:0] $end
$var reg 32 W out [31:0] $end
$upscope $end
$scope module ALU $end
$var wire 1 M zero $end
$var wire 1 N sign $end
$var wire 32 X B [31:0] $end
$var wire 3 Y ALUOp [2:0] $end
$var wire 32 Z A [31:0] $end
$var reg 32 [ result [31:0] $end
$upscope $end
$scope module ALUoutDR $end
$var wire 1 + Reset $end
$var wire 1 , clk $end
$var wire 32 \ in [31:0] $end
$var reg 32 ] out [31:0] $end
$upscope $end
$scope module BDR $end
$var wire 1 + Reset $end
$var wire 1 , clk $end
$var wire 32 ^ in [31:0] $end
$var reg 32 _ out [31:0] $end
$upscope $end
$scope module ControlUnit $end
$var wire 1 - InsMemRW $end
$var wire 1 , clk $end
$var wire 6 ` opcode [5:0] $end
$var wire 1 + rst $end
$var wire 1 N sign $end
$var wire 1 M zero $end
$var reg 3 a ALUOp [2:0] $end
$var reg 1 S ALUSrcA $end
$var reg 1 R ALUSrcB $end
$var reg 1 J DBDataSrc $end
$var reg 1 F ExtSel $end
$var reg 1 D IRWre $end
$var reg 2 b PCSrc [1:0] $end
$var reg 1 B PCWre $end
$var reg 2 c RegDst [1:0] $end
$var reg 1 > RegWre $end
$var reg 1 = WrRegDSrc $end
$var reg 1 6 mRD $end
$var reg 1 5 mWR $end
$var reg 3 d state [2:0] $end
$upscope $end
$scope module DBDR $end
$var wire 1 + Reset $end
$var wire 1 , clk $end
$var wire 32 e in [31:0] $end
$var reg 32 f out [31:0] $end
$upscope $end
$scope module DataMemory $end
$var wire 32 g DAddr [31:0] $end
$var wire 32 h DataIn [31:0] $end
$var wire 1 6 RD $end
$var wire 1 5 WR $end
$var wire 1 , clk $end
$var wire 32 i DataOut [31:0] $end
$upscope $end
$scope module IR $end
$var wire 1 D IRWre $end
$var wire 1 , clk $end
$var wire 32 j insIn [31:0] $end
$var reg 32 k insOut [31:0] $end
$upscope $end
$scope module ImmediateExtend $end
$var wire 1 F ExtSel $end
$var wire 16 l original [15:0] $end
$var reg 32 m extended [31:0] $end
$upscope $end
$scope module InstructionMemory $end
$var wire 32 n IDataOut [31:0] $end
$var wire 32 o IAddr [31:0] $end
$upscope $end
$scope module Mux_ALU_inA $end
$var wire 1 S choice $end
$var wire 32 p in0 [31:0] $end
$var wire 32 q in1 [31:0] $end
$var wire 32 r out [31:0] $end
$upscope $end
$scope module Mux_ALU_inB $end
$var wire 1 R choice $end
$var wire 32 s in0 [31:0] $end
$var wire 32 t in1 [31:0] $end
$var wire 32 u out [31:0] $end
$upscope $end
$scope module Mux_DBDR $end
$var wire 1 J choice $end
$var wire 32 v in0 [31:0] $end
$var wire 32 w in1 [31:0] $end
$var wire 32 x out [31:0] $end
$upscope $end
$scope module Mux_WriteData $end
$var wire 1 = choice $end
$var wire 32 y in0 [31:0] $end
$var wire 32 z in1 [31:0] $end
$var wire 32 { out [31:0] $end
$upscope $end
$scope module Mux_WriteReg $end
$var wire 2 | choice [1:0] $end
$var wire 5 } in0 [4:0] $end
$var wire 5 ~ in1 [4:0] $end
$var wire 5 !" in2 [4:0] $end
$var wire 5 "" in3 [4:0] $end
$var reg 5 #" out [4:0] $end
$upscope $end
$scope module Mux_nextIAddr $end
$var wire 2 $" choice [1:0] $end
$var wire 32 %" in0 [31:0] $end
$var wire 32 &" in1 [31:0] $end
$var wire 32 '" in3 [31:0] $end
$var wire 32 (" in2 [31:0] $end
$var reg 32 )" out [31:0] $end
$upscope $end
$scope module PC $end
$var wire 1 B PCWre $end
$var wire 1 + Reset $end
$var wire 1 , clk $end
$var wire 32 *" nextIAddr [31:0] $end
$var reg 32 +" currentIAddr [31:0] $end
$upscope $end
$scope module RegisterFile $end
$var wire 5 ," ReadReg1 [4:0] $end
$var wire 5 -" ReadReg2 [4:0] $end
$var wire 1 + Reset $end
$var wire 1 > WE $end
$var wire 32 ." WriteData [31:0] $end
$var wire 5 /" WriteReg [4:0] $end
$var wire 1 , clk $end
$var wire 32 0" ReadData2 [31:0] $end
$var wire 32 1" ReadData1 [31:0] $end
$upscope $end
$upscope $end
$upscope $end
$enddefinitions $end
#0
$dumpvars
bx 1"
bx 0"
bx /"
bx ."
bx -"
bx ,"
b0 +"
b0 *"
b0 )"
bx ("
b0xxxxxxxxxxxxxxxxxxxxxxxxxx00 '"
bx &"
b100 %"
bx $"
bx #"
bz ""
bx !"
bx ~
b11111 }
bx |
bx {
bx z
b100 y
bx x
bx w
bx v
bx u
bx t
bx s
bx r
b0xxxxx q
bx p
b0 o
b1000100001100000000000 n
bx m
bx l
bx k
b1000100001100000000000 j
bx i
bx h
bx g
bx f
bx e
b0 d
bx c
bx b
bx a
bx `
bx _
bx ^
bx ]
bx \
bx [
bx Z
bx Y
bx X
bx W
bx V
bx U
bx T
xS
xR
bx Q
bx P
bx O
xN
xM
bx L
bx K
xJ
bx I
bx H
bx G
xF
b1000100001100000000000 E
1D
bx C
1B
bx A
bx @
bx ?
x>
x=
bx <
bx ;
bx :
b0 9
bx 8
bx 7
x6
x5
b0 4
x3
bx 2
bx 1
bx 0
bx /
bx .
1-
1,
0+
bx *
bx )
bx (
bx '
b0 &
bx %
b0 $
b0xxxxxx #
bx "
bx !
$end
#25000
1+
#50000
b11 ;
b11 #"
b11 /"
b110000000000100 &"
bz G
bz i
bz w
b100 $
b100 4
b100 )"
b100 *"
b1100000000000 8
b1100000000000 m
b1100000000000 t
0S
0R
0J
1=
06
0F
b0 C
b0 b
b0 $"
b10 ?
b10 c
b10 |
b0 T
b0 Y
b0 a
b0 q
b110 '
b110 @
b110 ^
b110 0"
b101 (
b101 A
b101 V
b101 ("
b101 1"
05
0>
03
b100010000110000000000000 '"
b1100000000000 7
b1100000000000 l
b11 1
b11 !"
b10 !
b10 /
b10 ~
b10 -"
b1 "
b1 0
b1 ,"
b0 #
b0 2
b0 `
0B
b1000100001100000000000 %
b1000100001100000000000 .
b1000100001100000000000 :
b1000100001100000000000 k
0,
#100000
0M
0N
b1011 H
b1011 e
b1011 x
b1011 *
b1011 O
b1011 [
b1011 \
b1011 v
b110 P
b110 X
b110 u
b101 Q
b101 Z
b101 r
b110 K
b110 _
b110 h
b110 s
b101 U
b101 W
b101 p
b1 d
1,
#150000
0,
#200000
b1011 <
b1011 {
b1011 ."
b1011 L
b1011 ]
b1011 g
b1011 )
b1011 I
b1011 f
b1011 z
b110 d
1,
#250000
0,
#300000
1>
b111 d
1,
#350000
1B
0,
#400000
0>
b1000 $
b1000 4
b1000 )"
b1000 *"
b0 d
b1000001000100000001000100100 E
b1000001000100000001000100100 j
b1000001000100000001000100100 n
b1000 y
b110000000001000 &"
b1000 %"
b100 &
b100 9
b100 o
b100 +"
1,
#450000
b1000101001 H
b1000101001 e
b1000101001 x
b1000101001 *
b1000101001 O
b1000101001 [
b1000101001 \
b1000101001 v
b100010011000 &"
b1000100100 P
b1000100100 X
b1000100100 u
b1000100100 8
b1000100100 m
b1000100100 t
b10 ;
b10 #"
b10 /"
1R
1F
b1 ?
b1 c
b1 |
b1000 q
b100010000000100010010000 '"
b1000100100 7
b1000100100 l
b0 1
b0 !"
b10 #
b10 2
b10 `
0B
b1000001000100000001000100100 %
b1000001000100000001000100100 .
b1000001000100000001000100100 :
b1000001000100000001000100100 k
0,
#500000
b1000101001 <
b1000101001 {
b1000101001 ."
b1000101001 )
b1000101001 I
b1000101001 f
b1000101001 z
b1000101001 L
b1000101001 ]
b1000101001 g
b1 d
1,
#550000
0,
#600000
b110 d
1,
#650000
0,
#700000
1>
b111 d
1,
#750000
b1000101001 '
b1000101001 @
b1000101001 ^
b1000101001 0"
1B
0,
#800000
0>
b1100 $
b1100 4
b1100 )"
b1100 *"
b1000101001 K
b1000101001 _
b1000101001 h
b1000101001 s
b0 d
bx E
bx j
bx n
b1100 y
b100010011100 &"
b1100 %"
b1000 &
b1000 9
b1000 o
b1000 +"
1,
#850000
xM
xN
bx H
bx e
bx x
bx *
bx O
bx [
bx \
bx v
b1111111111111111xxxxxxxxxxxxxxxx P
b1111111111111111xxxxxxxxxxxxxxxx X
b1111111111111111xxxxxxxxxxxxxxxx u
bx &"
b1111111111111111xxxxxxxxxxxxxxxx 8
b1111111111111111xxxxxxxxxxxxxxxx m
b1111111111111111xxxxxxxxxxxxxxxx t
bx ;
bx #"
bx /"
b0xxxxx q
bx '
bx @
bx ^
bx 0"
bx (
bx A
bx V
bx ("
bx 1"
x3
b0xxxxxxxxxxxxxxxxxxxxxxxxxx00 '"
bx 7
bx l
bx 1
bx !"
bx !
bx /
bx ~
bx -"
bx "
bx 0
bx ,"
b0xxxxxx #
bx 2
bx `
0B
bx %
bx .
bx :
bx k
0,
#900000
bx <
bx {
bx ."
bx Q
bx Z
bx r
bx )
bx I
bx f
bx z
bx L
bx ]
bx g
bx K
bx _
bx h
bx s
bx U
bx W
bx p
b1 d
1,
#950000
xB
0,
#1000000
b110 d
1,
#1050000
0B
0,
#1100000
b111 d
1,
#1150000
1B
0,
#1200000
b10000 $
b10000 4
b10000 )"
b10000 *"
b0 d
b10000 y
b10000 %"
b1100 &
b1100 9
b1100 o
b1100 +"
1,
#1250000
0B
0,
#1300000
b1 d
1,
#1350000
xB
0,
#1400000
b110 d
1,
#1450000
0B
0,
#1500000
b111 d
1,
#1550000
1B
0,
#1600000
b10100 $
b10100 4
b10100 )"
b10100 *"
b0 d
b10100 y
b10100 %"
b10000 &
b10000 9
b10000 o
b10000 +"
1,
#1650000
0B
0,
#1700000
b1 d
1,
#1750000
xB
0,
#1800000
b110 d
1,
#1850000
0B
0,
#1900000
b111 d
1,
#1950000
1B
0,
#2000000
b11000 $
b11000 4
b11000 )"
b11000 *"
b0 d
b11000 y
b11000 %"
b10100 &
b10100 9
b10100 o
b10100 +"
1,
#2050000
0B
0,
#2100000
b1 d
1,
#2150000
xB
0,
#2200000
b110 d
1,
#2250000
0B
0,
#2300000
b111 d
1,
#2350000
1B
0,
#2400000
b11100 $
b11100 4
b11100 )"
b11100 *"
b0 d
b11100 y
b11100 %"
b11000 &
b11000 9
b11000 o
b11000 +"
1,
#2450000
0B
0,
#2500000
b1 d
1,
#2550000
xB
0,
#2600000
b110 d
1,
#2650000
0B
0,
#2700000
b111 d
1,
#2750000
1B
0,
#2800000
b100000 $
b100000 4
b100000 )"
b100000 *"
b0 d
b100000 y
b100000 %"
b11100 &
b11100 9
b11100 o
b11100 +"
1,
#2850000
0B
0,
#2900000
b1 d
1,
#2950000
xB
0,
#3000000
b110 d
1,
#3050000
0B
0,
#3100000
b111 d
1,
#3150000
1B
0,
#3200000
b100100 $
b100100 4
b100100 )"
b100100 *"
b0 d
b100100 y
b100100 %"
b100000 &
b100000 9
b100000 o
b100000 +"
1,
#3250000
0B
0,
#3300000
b1 d
1,
#3350000
xB
0,
#3400000
b110 d
1,
#3450000
0B
0,
#3500000
b111 d
1,
#3550000
1B
0,
#3600000
b101000 $
b101000 4
b101000 )"
b101000 *"
b0 d
b101000 y
b101000 %"
b100100 &
b100100 9
b100100 o
b100100 +"
1,
#3650000
0B
0,
#3700000
b1 d
1,
#3750000
xB
0,
#3800000
b110 d
1,
#3850000
0B
0,
#3900000
b111 d
1,
#3950000
1B
0,
#4000000
b101100 $
b101100 4
b101100 )"
b101100 *"
b0 d
b101100 y
b101100 %"
b101000 &
b101000 9
b101000 o
b101000 +"
1,
#4050000
0B
0,
#4100000
b1 d
1,
#4150000
xB
0,
#4200000
b110 d
1,
#4250000
0B
0,
#4300000
b111 d
1,
#4350000
1B
0,
#4400000
b110000 $
b110000 4
b110000 )"
b110000 *"
b0 d
b110000 y
b110000 %"
b101100 &
b101100 9
b101100 o
b101100 +"
1,
#4450000
0B
0,
#4500000
b1 d
1,
#4550000
xB
0,
#4600000
b110 d
1,
#4650000
0B
0,
#4700000
b111 d
1,
#4750000
1B
0,
#4800000
b110100 $
b110100 4
b110100 )"
b110100 *"
b0 d
b110100 y
b110100 %"
b110000 &
b110000 9
b110000 o
b110000 +"
1,
#4850000
0B
0,
#4900000
b1 d
1,
#4950000
xB
0,
#5000000
b110 d
1,
#5050000
0B
0,
#5100000
b111 d
1,
#5150000
1B
0,
#5200000
b111000 $
b111000 4
b111000 )"
b111000 *"
b0 d
b111000 y
b111000 %"
b110100 &
b110100 9
b110100 o
b110100 +"
1,
#5250000
0B
0,
#5300000
b1 d
1,
#5350000
xB
0,
#5400000
b110 d
1,
#5450000
0B
0,
#5500000
b111 d
1,
#5550000
1B
0,
#5600000
b111100 $
b111100 4
b111100 )"
b111100 *"
b0 d
b111100 y
b111100 %"
b111000 &
b111000 9
b111000 o
b111000 +"
1,
#5650000
0B
0,
#5700000
b1 d
1,
#5750000
xB
0,
#5800000
b110 d
1,
#5850000
0B
0,
#5900000
b111 d
1,
#5950000
1B
0,
#6000000
b1000000 $
b1000000 4
b1000000 )"
b1000000 *"
b0 d
b1000000 y
b1000000 %"
b111100 &
b111100 9
b111100 o
b111100 +"
1,
#6050000
0B
0,
#6100000
b1 d
1,
#6150000
xB
0,
#6200000
b110 d
1,
#6250000
0B
0,
#6300000
b111 d
1,
#6350000
1B
0,
#6400000
b1000100 $
b1000100 4
b1000100 )"
b1000100 *"
b0 d
b1000100 y
b1000100 %"
b1000000 &
b1000000 9
b1000000 o
b1000000 +"
1,
#6450000
0B
0,
#6500000
b1 d
1,
#6550000
xB
0,
#6600000
b110 d
1,
#6650000
0B
0,
#6700000
b111 d
1,
#6750000
1B
0,
#6800000
b1001000 $
b1001000 4
b1001000 )"
b1001000 *"
b0 d
b1001000 y
b1001000 %"
b1000100 &
b1000100 9
b1000100 o
b1000100 +"
1,
#6850000
0B
0,
#6900000
b1 d
1,
#6950000
xB
0,
#7000000
b110 d
1,
#7050000
0B
0,
#7100000
b111 d
1,
#7150000
1B
0,
#7200000
b1001100 $
b1001100 4
b1001100 )"
b1001100 *"
b0 d
b1001100 y
b1001100 %"
b1001000 &
b1001000 9
b1001000 o
b1001000 +"
1,
#7250000
0B
0,
#7300000
b1 d
1,
#7350000
xB
0,
#7400000
b110 d
1,
#7450000
0B
0,
#7500000
b111 d
1,
#7550000
1B
0,
#7600000
b1010000 $
b1010000 4
b1010000 )"
b1010000 *"
b0 d
b1010000 y
b1010000 %"
b1001100 &
b1001100 9
b1001100 o
b1001100 +"
1,
#7650000
0B
0,
#7700000
b1 d
1,
#7750000
xB
0,
#7800000
b110 d
1,
#7850000
0B
0,
#7900000
b111 d
1,
#7950000
1B
0,
#8000000
b1010100 $
b1010100 4
b1010100 )"
b1010100 *"
b0 d
b1010100 y
b1010100 %"
b1010000 &
b1010000 9
b1010000 o
b1010000 +"
1,
#8050000
0B
0,
#8100000
b1 d
1,
#8150000
xB
0,
#8200000
b110 d
1,
#8250000
0B
0,
#8300000
b111 d
1,
#8350000
1B
0,
#8400000
b1011000 $
b1011000 4
b1011000 )"
b1011000 *"
b0 d
b1011000 y
b1011000 %"
b1010100 &
b1010100 9
b1010100 o
b1010100 +"
1,
#8450000
0B
0,
#8500000
b1 d
1,
#8550000
xB
0,
#8600000
b110 d
1,
#8650000
0B
0,
#8700000
b111 d
1,
#8750000
1B
0,
#8800000
b1011100 $
b1011100 4
b1011100 )"
b1011100 *"
b0 d
b1011100 y
b1011100 %"
b1011000 &
b1011000 9
b1011000 o
b1011000 +"
1,
#8850000
0B
0,
#8900000
b1 d
1,
#8950000
xB
0,
#9000000
b110 d
1,
#9050000
0B
0,
#9100000
b111 d
1,
#9150000
1B
0,
#9200000
b1100000 $
b1100000 4
b1100000 )"
b1100000 *"
b0 d
b1100000 y
b1100000 %"
b1011100 &
b1011100 9
b1011100 o
b1011100 +"
1,
#9250000
0B
0,
#9300000
b1 d
1,
#9350000
xB
0,
#9400000
b110 d
1,
#9450000
0B
0,
#9500000
b111 d
1,
#9550000
1B
0,
#9600000
b1100100 $
b1100100 4
b1100100 )"
b1100100 *"
b0 d
b1100100 y
b1100100 %"
b1100000 &
b1100000 9
b1100000 o
b1100000 +"
1,
#9650000
0B
0,
#9700000
b1 d
1,
#9750000
xB
0,
#9800000
b110 d
1,
#9850000
0B
0,
#9900000
b111 d
1,
#9950000
1B
0,
#10000000
b1101000 $
b1101000 4
b1101000 )"
b1101000 *"
b0 d
b1101000 y
b1101000 %"
b1100100 &
b1100100 9
b1100100 o
b1100100 +"
1,
#10050000
0B
0,
#10100000
b1 d
1,
#10150000
xB
0,
#10200000
b110 d
1,
#10250000
0B
0,
#10300000
b111 d
1,
#10350000
1B
0,
#10400000
b1101100 $
b1101100 4
b1101100 )"
b1101100 *"
b0 d
b1101100 y
b1101100 %"
b1101000 &
b1101000 9
b1101000 o
b1101000 +"
1,
#10450000
0B
0,
#10500000
b1 d
1,
#10550000
xB
0,
#10600000
b110 d
1,
#10650000
0B
0,
#10700000
b111 d
1,
#10750000
1B
0,
#10800000
b1110000 $
b1110000 4
b1110000 )"
b1110000 *"
b0 d
b1110000 y
b1110000 %"
b1101100 &
b1101100 9
b1101100 o
b1101100 +"
1,
#10850000
0B
0,
#10900000
b1 d
1,
#10950000
xB
0,
#11000000
b110 d
1,
#11050000
0B
0,
#11100000
b111 d
1,
#11150000
1B
0,
#11200000
b1110100 $
b1110100 4
b1110100 )"
b1110100 *"
b0 d
b1110100 y
b1110100 %"
b1110000 &
b1110000 9
b1110000 o
b1110000 +"
1,
#11250000
0B
0,
#11300000
b1 d
1,
#11350000
xB
0,
#11400000
b110 d
1,
#11450000
0B
0,
#11500000
b111 d
1,
#11550000
1B
0,
#11600000
b1111000 $
b1111000 4
b1111000 )"
b1111000 *"
b0 d
b1111000 y
b1111000 %"
b1110100 &
b1110100 9
b1110100 o
b1110100 +"
1,
#11650000
0B
0,
#11700000
b1 d
1,
#11750000
xB
0,
#11800000
b110 d
1,
#11850000
0B
0,
#11900000
b111 d
1,
#11950000
1B
0,
#12000000
b1111100 $
b1111100 4
b1111100 )"
b1111100 *"
b0 d
b1111100 y
b1111100 %"
b1111000 &
b1111000 9
b1111000 o
b1111000 +"
1,
#12050000
0B
0,
#12100000
b1 d
1,
#12150000
xB
0,
#12200000
b110 d
1,
#12250000
0B
0,
#12300000
b111 d
1,
#12350000
1B
0,
#12400000
b10000000 $
b10000000 4
b10000000 )"
b10000000 *"
b0 d
b10000000 y
b10000000 %"
b1111100 &
b1111100 9
b1111100 o
b1111100 +"
1,
#12450000
0B
0,
#12500000
b1 d
1,
#12550000
xB
0,
#12600000
b110 d
1,
#12650000
0B
0,
#12700000
b111 d
1,
#12750000
1B
0,
#12800000
b10000100 $
b10000100 4
b10000100 )"
b10000100 *"
b0 d
b10000100 y
b10000100 %"
b10000000 &
b10000000 9
b10000000 o
b10000000 +"
1,
#12850000
0B
0,
#12900000
b1 d
1,
#12950000
xB
0,
#13000000
b110 d
1,
#13050000
0B
0,
#13100000
b111 d
1,
#13150000
1B
0,
#13200000
b10001000 $
b10001000 4
b10001000 )"
b10001000 *"
b0 d
b10001000 y
b10001000 %"
b10000100 &
b10000100 9
b10000100 o
b10000100 +"
1,
#13250000
0B
0,
#13300000
b1 d
1,
#13350000
xB
0,
#13400000
b110 d
1,
#13450000
0B
0,
#13500000
b111 d
1,
#13550000
1B
0,
#13600000
b10001100 $
b10001100 4
b10001100 )"
b10001100 *"
b0 d
b10001100 y
b10001100 %"
b10001000 &
b10001000 9
b10001000 o
b10001000 +"
1,
#13650000
0B
0,
#13700000
b1 d
1,
#13750000
xB
0,
#13800000
b110 d
1,
#13850000
0B
0,
#13900000
b111 d
1,
#13950000
1B
0,
#14000000
b10010000 $
b10010000 4
b10010000 )"
b10010000 *"
b0 d
b10010000 y
b10010000 %"
b10001100 &
b10001100 9
b10001100 o
b10001100 +"
1,
#14050000
0B
0,
#14100000
b1 d
1,
#14150000
xB
0,
#14200000
b110 d
1,
#14250000
0B
0,
#14300000
b111 d
1,
#14350000
1B
0,
#14400000
b10010100 $
b10010100 4
b10010100 )"
b10010100 *"
b0 d
b10010100 y
b10010100 %"
b10010000 &
b10010000 9
b10010000 o
b10010000 +"
1,
#14450000
0B
0,
#14500000
b1 d
1,
#14550000
xB
0,
#14600000
b110 d
1,
#14650000
0B
0,
#14700000
b111 d
1,
#14750000
1B
0,
#14800000
b10011000 $
b10011000 4
b10011000 )"
b10011000 *"
b0 d
b10011000 y
b10011000 %"
b10010100 &
b10010100 9
b10010100 o
b10010100 +"
1,
#14850000
0B
0,
#14900000
b1 d
1,
#14950000
xB
0,
#15000000
b110 d
1,
#15050000
0B
0,
#15100000
b111 d
1,
#15150000
1B
0,
#15200000
b10011100 $
b10011100 4
b10011100 )"
b10011100 *"
b0 d
b10011100 y
b10011100 %"
b10011000 &
b10011000 9
b10011000 o
b10011000 +"
1,
#15250000
0B
0,
#15300000
b1 d
1,
#15350000
xB
0,
#15400000
b110 d
1,
#15450000
0B
0,
#15500000
b111 d
1,
#15550000
1B
0,
#15600000
b10100000 $
b10100000 4
b10100000 )"
b10100000 *"
b0 d
b10100000 y
b10100000 %"
b10011100 &
b10011100 9
b10011100 o
b10011100 +"
1,
#15650000
0B
0,
#15700000
b1 d
1,
#15750000
xB
0,
#15800000
b110 d
1,
#15850000
0B
0,
#15900000
b111 d
1,
#15950000
1B
0,
#16000000
b10100100 $
b10100100 4
b10100100 )"
b10100100 *"
b0 d
b10100100 y
b10100100 %"
b10100000 &
b10100000 9
b10100000 o
b10100000 +"
1,
#16050000
0B
0,
#16100000
b1 d
1,
#16150000
xB
0,
#16200000
b110 d
1,
#16250000
0B
0,
#16300000
b111 d
1,
#16350000
1B
0,
#16400000
b10101000 $
b10101000 4
b10101000 )"
b10101000 *"
b0 d
b10101000 y
b10101000 %"
b10100100 &
b10100100 9
b10100100 o
b10100100 +"
1,
#16450000
0B
0,
#16500000
b1 d
1,
#16550000
xB
0,
#16600000
b110 d
1,
#16650000
0B
0,
#16700000
b111 d
1,
#16750000
1B
0,
#16800000
b10101100 $
b10101100 4
b10101100 )"
b10101100 *"
b0 d
b10101100 y
b10101100 %"
b10101000 &
b10101000 9
b10101000 o
b10101000 +"
1,
#16850000
0B
0,
#16900000
b1 d
1,
#16950000
xB
0,
#17000000
b110 d
1,
#17050000
0B
0,
#17100000
b111 d
1,
#17150000
1B
0,
#17200000
b10110000 $
b10110000 4
b10110000 )"
b10110000 *"
b0 d
b10110000 y
b10110000 %"
b10101100 &
b10101100 9
b10101100 o
b10101100 +"
1,
#17250000
0B
0,
#17300000
b1 d
1,
#17350000
xB
0,
#17400000
b110 d
1,
#17450000
0B
0,
#17500000
b111 d
1,
#17550000
1B
0,
#17600000
b10110100 $
b10110100 4
b10110100 )"
b10110100 *"
b0 d
b10110100 y
b10110100 %"
b10110000 &
b10110000 9
b10110000 o
b10110000 +"
1,
#17650000
0B
0,
#17700000
b1 d
1,
#17750000
xB
0,
#17800000
b110 d
1,
#17850000
0B
0,
#17900000
b111 d
1,
#17950000
1B
0,
#18000000
b10111000 $
b10111000 4
b10111000 )"
b10111000 *"
b0 d
b10111000 y
b10111000 %"
b10110100 &
b10110100 9
b10110100 o
b10110100 +"
1,
#18050000
0B
0,
#18100000
b1 d
1,
#18150000
xB
0,
#18200000
b110 d
1,
#18250000
0B
0,
#18300000
b111 d
1,
#18350000
1B
0,
#18400000
b10111100 $
b10111100 4
b10111100 )"
b10111100 *"
b0 d
b10111100 y
b10111100 %"
b10111000 &
b10111000 9
b10111000 o
b10111000 +"
1,
#18450000
0B
0,
#18500000
b1 d
1,
#18550000
xB
0,
#18600000
b110 d
1,
#18650000
0B
0,
#18700000
b111 d
1,
#18750000
1B
0,
#18800000
b11000000 $
b11000000 4
b11000000 )"
b11000000 *"
b0 d
b11000000 y
b11000000 %"
b10111100 &
b10111100 9
b10111100 o
b10111100 +"
1,
#18850000
0B
0,
#18900000
b1 d
1,
#18950000
xB
0,
#19000000
b110 d
1,
#19050000
0B
0,
#19100000
b111 d
1,
#19150000
1B
0,
#19200000
b11000100 $
b11000100 4
b11000100 )"
b11000100 *"
b0 d
b11000100 y
b11000100 %"
b11000000 &
b11000000 9
b11000000 o
b11000000 +"
1,
#19250000
0B
0,
#19300000
b1 d
1,
#19350000
xB
0,
#19400000
b110 d
1,
#19450000
0B
0,
#19500000
b111 d
1,
#19550000
1B
0,
#19600000
b11001000 $
b11001000 4
b11001000 )"
b11001000 *"
b0 d
b11001000 y
b11001000 %"
b11000100 &
b11000100 9
b11000100 o
b11000100 +"
1,
#19650000
0B
0,
#19700000
b1 d
1,
#19750000
xB
0,
#19800000
b110 d
1,
#19850000
0B
0,
#19900000
b111 d
1,
#19950000
1B
0,
#20000000
b11001100 $
b11001100 4
b11001100 )"
b11001100 *"
b0 d
b11001100 y
b11001100 %"
b11001000 &
b11001000 9
b11001000 o
b11001000 +"
1,
#20050000
0B
0,
#20100000
b1 d
1,
#20150000
xB
0,
#20200000
b110 d
1,
#20250000
0B
0,
#20300000
b111 d
1,
#20350000
1B
0,
#20400000
b11010000 $
b11010000 4
b11010000 )"
b11010000 *"
b0 d
b11010000 y
b11010000 %"
b11001100 &
b11001100 9
b11001100 o
b11001100 +"
1,
#20450000
0B
0,
#20500000
b1 d
1,
#20550000
xB
0,
#20600000
b110 d
1,
#20650000
0B
0,
#20700000
b111 d
1,
#20750000
1B
0,
#20800000
b11010100 $
b11010100 4
b11010100 )"
b11010100 *"
b0 d
b11010100 y
b11010100 %"
b11010000 &
b11010000 9
b11010000 o
b11010000 +"
1,
#20850000
0B
0,
#20900000
b1 d
1,
#20950000
xB
0,
#21000000
b110 d
1,
#21050000
0B
0,
#21100000
b111 d
1,
#21150000
1B
0,
#21200000
b11011000 $
b11011000 4
b11011000 )"
b11011000 *"
b0 d
b11011000 y
b11011000 %"
b11010100 &
b11010100 9
b11010100 o
b11010100 +"
1,
#21250000
0B
0,
#21300000
b1 d
1,
#21350000
xB
0,
#21400000
b110 d
1,
#21450000
0B
0,
#21500000
b111 d
1,
#21550000
1B
0,
#21600000
b11011100 $
b11011100 4
b11011100 )"
b11011100 *"
b0 d
b11011100 y
b11011100 %"
b11011000 &
b11011000 9
b11011000 o
b11011000 +"
1,
#21650000
0B
0,
#21700000
b1 d
1,
#21750000
xB
0,
#21800000
b110 d
1,
#21850000
0B
0,
#21900000
b111 d
1,
#21950000
1B
0,
#22000000
b11100000 $
b11100000 4
b11100000 )"
b11100000 *"
b0 d
b11100000 y
b11100000 %"
b11011100 &
b11011100 9
b11011100 o
b11011100 +"
1,
#22050000
0B
0,
#22100000
b1 d
1,
#22150000
xB
0,
#22200000
b110 d
1,
#22250000
0B
0,
#22300000
b111 d
1,
#22350000
1B
0,
#22400000
b11100100 $
b11100100 4
b11100100 )"
b11100100 *"
b0 d
b11100100 y
b11100100 %"
b11100000 &
b11100000 9
b11100000 o
b11100000 +"
1,
#22450000
0B
0,
#22500000
b1 d
1,
#22550000
xB
0,
#22600000
b110 d
1,
#22650000
0B
0,
#22700000
b111 d
1,
#22750000
1B
0,
#22800000
b11101000 $
b11101000 4
b11101000 )"
b11101000 *"
b0 d
b11101000 y
b11101000 %"
b11100100 &
b11100100 9
b11100100 o
b11100100 +"
1,
#22850000
0B
0,
#22900000
b1 d
1,
#22950000
xB
0,
#23000000
b110 d
1,
#23050000
0B
0,
#23100000
b111 d
1,
#23150000
1B
0,
